runId,startTime,duration,status,errMessage,totalFilesScanned,bucket,scan_file_name
142340,2020-06-02 00:12:31,941,FINISHED_OK,,17,Antoinette Mendieta (Civil),./data-out/142337/client-import-files/filevine-7087/docs/
142339,2020-06-02 00:12:31,991,FINISHED_OK,,5,Aida Blanco (Civil),./data-out/142337/client-import-files/filevine-7087/docs/
142341,2020-06-02 00:12:31,1530,FINISHED_OK,,357,Carlos Flores (Civil),./data-out/142337/client-import-files/filevine-7087/docs/
142342,2020-06-02 00:12:31,1556,FINISHED_OK,,416,Catherine Walls (Civil),./data-out/142337/client-import-files/filevine-7087/docs/
142344,2020-06-02 00:12:32,794,FINISHED_OK,,40,Christopher Balutis (Civil),./data-out/142337/client-import-files/filevine-7087/docs/
142343,2020-06-02 00:12:32,1045,FINISHED_OK,,160,Charles Mealey (Civil),./data-out/142337/client-import-files/filevine-7087/docs/
142345,2020-06-02 00:12:33,965,FINISHED_OK,,188,Doris Prince (Civil),./data-out/142337/client-import-files/filevine-7087/docs/
142347,2020-06-02 00:12:33,819,FINISHED_OK,,92,Eduardo DeLa Cruz (Civil),./data-out/142337/client-import-files/filevine-7087/docs/
142348,2020-06-02 00:12:33,748,FINISHED_OK,,80,Edward Zertuche (Civil),./data-out/142337/client-import-files/filevine-7087/docs/
142346,2020-06-02 00:12:33,1361,FINISHED_OK,,400,Eddie Duckworth, III (Civil),./data-out/142337/client-import-files/filevine-7087/docs/
142349,2020-06-02 00:12:34,612,FINISHED_OK,,6,Eli L. Mikiten (Civil),./data-out/142337/client-import-files/filevine-7087/docs/
142350,2020-06-02 00:12:34,802,FINISHED_OK,,114,Enzo Mori (Civil),./data-out/142337/client-import-files/filevine-7087/docs/
142351,2020-06-02 00:12:34,844,FINISHED_OK,,74,Eric Heslin (Civil),./data-out/142337/client-import-files/filevine-7087/docs/
142353,2020-06-02 00:12:34,778,FINISHED_OK,,45,Erick Dominguez (Civil),./data-out/142337/client-import-files/filevine-7087/docs/
142352,2020-06-02 00:12:34,1063,FINISHED_OK,,230,Eric Zaragoza (Civil),./data-out/142337/client-import-files/filevine-7087/docs/
142354,2020-06-02 00:12:34,646,FINISHED_OK,,2,Erick Dominguez,./data-out/142337/client-import-files/filevine-7087/docs/
142355,2020-06-02 00:12:35,701,FINISHED_OK,,8,Felix Silvestre (Civil),./data-out/142337/client-import-files/filevine-7087/docs/
142356,2020-06-02 00:12:35,1074,FINISHED_OK,,190,Fernando Garcia (Civil),./data-out/142337/client-import-files/filevine-7087/docs/
142359,2020-06-02 00:12:35,1104,FINISHED_OK,,235,Francisco Orozco-Huerta (Civil),./data-out/142337/client-import-files/filevine-7087/docs/
142360,2020-06-02 00:12:36,1087,FINISHED_OK,,208,Frandi Zacarias (Civil),./data-out/142337/client-import-files/filevine-7087/docs/
142361,2020-06-02 00:12:36,700,FINISHED_OK,,14,Gale Maplesden (Civil),./data-out/142337/client-import-files/filevine-7087/docs/
142362,2020-06-02 00:12:37,591,FINISHED_OK,,6,Garrison, Michael vs. Matt Cole, et al,./data-out/142337/client-import-files/filevine-7087/docs/
142363,2020-06-02 00:12:37,711,FINISHED_OK,,40,Gayla Nethercott (Civil),./data-out/142337/client-import-files/filevine-7087/docs/
142365,2020-06-02 00:12:38,595,FINISHED_OK,,4,Gordon Reade (Civil),./data-out/142337/client-import-files/filevine-7087/docs/
142364,2020-06-02 00:12:38,964,FINISHED_OK,,30,Gerald Mantalvanos (Civil),./data-out/142337/client-import-files/filevine-7087/docs/
142366,2020-06-02 00:12:38,644,FINISHED_OK,,26,Griselda Ramirez (Civil),./data-out/142337/client-import-files/filevine-7087/docs/
142357,2020-06-02 00:12:35,4510,FINISHED_OK,,2735,Fernando Gonzalez Suarez (Civil),./data-out/142337/client-import-files/filevine-7087/docs/
142358,2020-06-02 00:12:35,4499,FINISHED_OK,,2767,Fernando Gonzalez-Suarez (Civil),./data-out/142337/client-import-files/filevine-7087/docs/
142367,2020-06-02 00:12:39,1055,FINISHED_OK,,249,Guadalupe A. Campillo-Cortes (Civil),./data-out/142337/client-import-files/filevine-7087/docs/
142368,2020-06-02 00:12:39,622,FINISHED_OK,,30,Gustavo Lara-Avila (Civil),./data-out/142337/client-import-files/filevine-7087/docs/
142369,2020-06-02 00:12:40,787,FINISHED_OK,,78,Helen Johnson (Civil),./data-out/142337/client-import-files/filevine-7087/docs/
142371,2020-06-02 00:12:40,736,FINISHED_OK,,56,Irma Davila-Guevara (Civil),./data-out/142337/client-import-files/filevine-7087/docs/
142370,2020-06-02 00:12:40,899,FINISHED_OK,,144,Hope Williams (Civil),./data-out/142337/client-import-files/filevine-7087/docs/
142372,2020-06-02 00:12:40,781,FINISHED_OK,,1,Ixchel Ruvalcaba (Civil),./data-out/142337/client-import-files/filevine-7087/docs/
142376,2020-06-02 00:12:41,641,FINISHED_OK,,22,Jesus Fierro (Civil),./data-out/142337/client-import-files/filevine-7087/docs/
142375,2020-06-02 00:12:41,790,FINISHED_OK,,40,Jason Saunders (Civil),./data-out/142337/client-import-files/filevine-7087/docs/
142373,2020-06-02 00:12:40,1051,FINISHED_OK,,25,Ixchel Ruvalcalva (Civil),./data-out/142337/client-import-files/filevine-7087/docs/
142374,2020-06-02 00:12:40,1516,FINISHED_OK,,528,Jacqueline Velasquez (Civil),./data-out/142337/client-import-files/filevine-7087/docs/
142379,2020-06-02 00:12:41,645,FINISHED_OK,,19,John Fornachon (Civil),./data-out/142337/client-import-files/filevine-7087/docs/
142377,2020-06-02 00:12:41,1030,FINISHED_OK,,210,Johanna Forman (Civil #2),./data-out/142337/client-import-files/filevine-7087/docs/
142381,2020-06-02 00:12:42,595,FINISHED_OK,,6,Jonathan Mendoza Calmo (Civil),./data-out/142337/client-import-files/filevine-7087/docs/
142382,2020-06-02 00:12:42,617,FINISHED_OK,,10,Jonathan Mendoza Calmo,./data-out/142337/client-import-files/filevine-7087/docs/
142380,2020-06-02 00:12:42,1105,FINISHED_OK,,304,John Neal (Civil),./data-out/142337/client-import-files/filevine-7087/docs/
142383,2020-06-02 00:12:43,647,FINISHED_OK,,11,Jose F. Amaya (Civil),./data-out/142337/client-import-files/filevine-7087/docs/
142384,2020-06-02 00:12:43,1413,FINISHED_OK,,545,Jose L. Martinez (Civil),./data-out/142337/client-import-files/filevine-7087/docs/
142385,2020-06-02 00:12:43,1419,FINISHED_OK,,453,Jose Luis Martinez Mendoza (Civil),./data-out/142337/client-import-files/filevine-7087/docs/
142386,2020-06-02 00:12:43,1280,FINISHED_OK,,343,Jose Tovar (Civil),./data-out/142337/client-import-files/filevine-7087/docs/
142378,2020-06-02 00:12:41,3298,FINISHED_OK,,1691,Johanna Forman (Civil),./data-out/142337/client-import-files/filevine-7087/docs/
142387,2020-06-02 00:12:44,783,FINISHED_OK,,53,Josh McDowell (Civil),./data-out/142337/client-import-files/filevine-7087/docs/
142388,2020-06-02 00:12:45,622,FINISHED_OK,,23,Juan Belloso Perez (Civil),./data-out/142337/client-import-files/filevine-7087/docs/
142389,2020-06-02 00:12:45,648,FINISHED_OK,,33,Juan Martinez (Civil),./data-out/142337/client-import-files/filevine-7087/docs/
142390,2020-06-02 00:12:45,978,FINISHED_OK,,161,Julian Chenault (Civil),./data-out/142337/client-import-files/filevine-7087/docs/
142392,2020-06-02 00:12:45,774,FINISHED_OK,,85,Kegham Keremian (Civil),./data-out/142337/client-import-files/filevine-7087/docs/
142391,2020-06-02 00:12:45,913,FINISHED_OK,,28,Kamala Mainali (Civil),./data-out/142337/client-import-files/filevine-7087/docs/
142394,2020-06-02 00:12:46,687,FINISHED_OK,,30,Larry Murray (Civil #2),./data-out/142337/client-import-files/filevine-7087/docs/
142395,2020-06-02 00:12:46,611,FINISHED_OK,,1,Leopoldo Zambrano (Civil),./data-out/142337/client-import-files/filevine-7087/docs/
142396,2020-06-02 00:12:46,610,FINISHED_OK,,25,Leticia Montes (Civil),./data-out/142337/client-import-files/filevine-7087/docs/
142393,2020-06-02 00:12:45,1642,FINISHED_OK,,700,Kelly L. Tuttle (Civil),./data-out/142337/client-import-files/filevine-7087/docs/
142397,2020-06-02 00:12:46,743,FINISHED_OK,,90,Linda Wong (Civil),./data-out/142337/client-import-files/filevine-7087/docs/
142399,2020-06-02 00:12:47,636,FINISHED_OK,,8,Lucia Sierra (Civil),./data-out/142337/client-import-files/filevine-7087/docs/
142398,2020-06-02 00:12:47,924,FINISHED_OK,,213,Lois Fox (Civil),./data-out/142337/client-import-files/filevine-7087/docs/
142401,2020-06-02 00:12:47,970,FINISHED_OK,,98,Maeodis Jones (Civil),./data-out/142337/client-import-files/filevine-7087/docs/
142403,2020-06-02 00:12:48,654,FINISHED_OK,,2,Martin Solano Murillo (Civil),./data-out/142337/client-import-files/filevine-7087/docs/
142402,2020-06-02 00:12:47,974,FINISHED_OK,,195,Maria C. Moctezuma (Civil),./data-out/142337/client-import-files/filevine-7087/docs/
142400,2020-06-02 00:12:47,1367,FINISHED_OK,,408,Macaria Perez (Civil),./data-out/142337/client-import-files/filevine-7087/docs/
142404,2020-06-02 00:12:48,623,FINISHED_OK,,10,Melissa Turner (Civil),./data-out/142337/client-import-files/filevine-7087/docs/
142405,2020-06-02 00:12:48,608,FINISHED_OK,,26,Michael Britt (Civil),./data-out/142337/client-import-files/filevine-7087/docs/
142406,2020-06-02 00:12:48,712,FINISHED_OK,,50,Miguel Becerra (Civil),./data-out/142337/client-import-files/filevine-7087/docs/
142407,2020-06-02 00:12:48,934,FINISHED_OK,,196,Monique Higgins (Civil),./data-out/142337/client-import-files/filevine-7087/docs/
142410,2020-06-02 00:12:49,611,FINISHED_OK,,6,Myron Sandoval (Federal Case #2),./data-out/142337/client-import-files/filevine-7087/docs/
142408,2020-06-02 00:12:49,921,FINISHED_OK,,204,Monique Higgins,./data-out/142337/client-import-files/filevine-7087/docs/
142411,2020-06-02 00:12:49,741,FINISHED_OK,,52,Nebosia Freeman, Jr. (Civil),./data-out/142337/client-import-files/filevine-7087/docs/
142412,2020-06-02 00:12:50,824,FINISHED_OK,,115,Nestor Duenas Santos (Civil),./data-out/142337/client-import-files/filevine-7087/docs/
142414,2020-06-02 00:12:50,626,FINISHED_OK,,22,Parwiz Khazi (Civil),./data-out/142337/client-import-files/filevine-7087/docs/
142413,2020-06-02 00:12:50,1212,FINISHED_OK,,363,Norma Ismail (Civil),./data-out/142337/client-import-files/filevine-7087/docs/
142415,2020-06-02 00:12:50,760,FINISHED_OK,,41,Pascual Carrillo (Civil),./data-out/142337/client-import-files/filevine-7087/docs/
142416,2020-06-02 00:12:51,700,FINISHED_OK,,44,Phyllis Vance (Civil),./data-out/142337/client-import-files/filevine-7087/docs/
142417,2020-06-02 00:12:51,668,FINISHED_OK,,10,Quientosha Jones (Civil),./data-out/142337/client-import-files/filevine-7087/docs/
142419,2020-06-02 00:12:51,602,FINISHED_OK,,3,Renard Lee (Civil),./data-out/142337/client-import-files/filevine-7087/docs/
142418,2020-06-02 00:12:51,838,FINISHED_OK,,131,Raquel Moody (Civil),./data-out/142337/client-import-files/filevine-7087/docs/
142420,2020-06-02 00:12:52,744,FINISHED_OK,,51,Richard VanCleve (Civil),./data-out/142337/client-import-files/filevine-7087/docs/
142409,2020-06-02 00:12:49,3789,FINISHED_OK,,3017,Myron Sandoval (Civil),./data-out/142337/client-import-files/filevine-7087/docs/
142422,2020-06-02 00:12:52,686,FINISHED_OK,,21,Robert Fornachon (Civil),./data-out/142337/client-import-files/filevine-7087/docs/
142423,2020-06-02 00:12:52,654,FINISHED_OK,,35,Robert Gotelli (Civil #2),./data-out/142337/client-import-files/filevine-7087/docs/
142421,2020-06-02 00:12:52,1377,FINISHED_OK,,391,Robb Wirt (Civil),./data-out/142337/client-import-files/filevine-7087/docs/
142425,2020-06-02 00:12:53,648,FINISHED_OK,,26,Rosalina Dinglasan (Civil),./data-out/142337/client-import-files/filevine-7087/docs/
142424,2020-06-02 00:12:53,1064,FINISHED_OK,,276,Robert Gotelli (Civil),./data-out/142337/client-import-files/filevine-7087/docs/
142426,2020-06-02 00:12:53,813,FINISHED_OK,,109,Rosalind Davies (Civil),./data-out/142337/client-import-files/filevine-7087/docs/
142427,2020-06-02 00:12:53,679,FINISHED_OK,,44,Roxanne Vance (Civil),./data-out/142337/client-import-files/filevine-7087/docs/
142428,2020-06-02 00:12:53,682,FINISHED_OK,,49,Ruben Riano (Civil),./data-out/142337/client-import-files/filevine-7087/docs/
142429,2020-06-02 00:12:54,748,FINISHED_OK,,65,Rudy Peraza Rivera (Civil),./data-out/142337/client-import-files/filevine-7087/docs/
142430,2020-06-02 00:12:54,941,FINISHED_OK,,181,Sabitra Bajagian (Civil),./data-out/142337/client-import-files/filevine-7087/docs/
142432,2020-06-02 00:12:54,932,FINISHED_OK,,199,Sabrita Bajagain (Civil),./data-out/142337/client-import-files/filevine-7087/docs/
142433,2020-06-02 00:12:54,946,FINISHED_OK,,148,Sergio Alvarez (Civil),./data-out/142337/client-import-files/filevine-7087/docs/
142434,2020-06-02 00:12:55,874,FINISHED_OK,,136,Sergio Alvarez Duenas (Civil),./data-out/142337/client-import-files/filevine-7087/docs/
142431,2020-06-02 00:12:54,1628,FINISHED_OK,,597,Sabrion Bush (Civil),./data-out/142337/client-import-files/filevine-7087/docs/
142435,2020-06-02 00:12:55,899,FINISHED_OK,,147,Shahin Taj Bakhtiar (Civil),./data-out/142337/client-import-files/filevine-7087/docs/
142436,2020-06-02 00:12:55,1032,FINISHED_OK,,203,Shannon Nelson (Civil),./data-out/142337/client-import-files/filevine-7087/docs/
142437,2020-06-02 00:12:56,806,FINISHED_OK,,88,Silvino Mejia Ramos (Civil),./data-out/142337/client-import-files/filevine-7087/docs/
142439,2020-06-02 00:12:56,621,FINISHED_OK,,28,Soo Kim (Civil),./data-out/142337/client-import-files/filevine-7087/docs/
142438,2020-06-02 00:12:56,993,FINISHED_OK,,161,Sonia T. Rivas (Civil),./data-out/142337/client-import-files/filevine-7087/docs/
142440,2020-06-02 00:12:56,628,FINISHED_OK,,16,Steve Kim (Civil),./data-out/142337/client-import-files/filevine-7087/docs/
142441,2020-06-02 00:12:56,655,FINISHED_OK,,22,Temaleti Havea (Civil),./data-out/142337/client-import-files/filevine-7087/docs/
142442,2020-06-02 00:12:57,628,FINISHED_OK,,5,Temujin Harris (Civil),./data-out/142337/client-import-files/filevine-7087/docs/
142443,2020-06-02 00:12:57,561,FINISHED_OK,,2,Tina Simon (Civil),./data-out/142337/client-import-files/filevine-7087/docs/
142446,2020-06-02 00:12:57,616,FINISHED_OK,,1,Tom Nussbaum (Civil),./data-out/142337/client-import-files/filevine-7087/docs/
142445,2020-06-02 00:12:57,1034,FINISHED_OK,,219,Tito Abel Pablo Jeronimo (Civil),./data-out/142337/client-import-files/filevine-7087/docs/
142444,2020-06-02 00:12:57,1128,FINISHED_OK,,251,Tito A. Jeronimo (Civil),./data-out/142337/client-import-files/filevine-7087/docs/
142448,2020-06-02 00:12:58,615,FINISHED_OK,,7,Vyacheslav Viner (Civil),./data-out/142337/client-import-files/filevine-7087/docs/
142449,2020-06-02 00:12:58,2574,FINISHED_OK,,1246,William Jeff Holley (Civil),./data-out/142337/client-import-files/filevine-7087/docs/
142447,2020-06-02 00:12:57,3849,FINISHED_OK,,2874,Victor Trejo (Civil),./data-out/142337/client-import-files/filevine-7087/docs/
