runId,startTime,duration,status,errMessage,totalFilesScanned,bucket,scan_file_name
89888,2020-05-15 00:23:12,514,FINISHED_OK,,2,ARB - Braman v. Kemper,./data-out/89883/client-import-files/filevine-7245/documents
89885,2020-05-15 00:23:12,811,FINISHED_OK,,68,2020 ABC Files,./data-out/89883/client-import-files/filevine-7245/documents
89886,2020-05-15 00:23:12,793,FINISHED_OK,,41,ANDERSON, HOLLY (Julie mom),./data-out/89883/client-import-files/filevine-7245/documents
89887,2020-05-15 00:23:12,759,FINISHED_OK,,73,ANTHONY, TAYLER MARIE ELLEN (minor),./data-out/89883/client-import-files/filevine-7245/documents
89889,2020-05-15 00:23:13,694,FINISHED_OK,,1,ARB - Fraley v. Allstate,./data-out/89883/client-import-files/filevine-7245/documents
89890,2020-05-15 00:23:13,652,FINISHED_OK,,1,ARB - Herkamp v State Farm,./data-out/89883/client-import-files/filevine-7245/documents
89891,2020-05-15 00:23:13,640,FINISHED_OK,,1,ARB - Patton v. Kemper,./data-out/89883/client-import-files/filevine-7245/documents
89892,2020-05-15 00:23:13,733,FINISHED_OK,,35,ARB - Rice v State Farm,./data-out/89883/client-import-files/filevine-7245/documents
89894,2020-05-15 00:23:13,606,FINISHED_OK,,2,ARB - Vettrus v. Safeco,./data-out/89883/client-import-files/filevine-7245/documents
89896,2020-05-15 00:23:13,779,FINISHED_OK,,82,Al-Awaj, Matthew,./data-out/89883/client-import-files/filevine-7245/documents
89895,2020-05-15 00:23:13,1184,FINISHED_OK,,328,AREVALO, ADILENE,./data-out/89883/client-import-files/filevine-7245/documents
89897,2020-05-15 00:23:14,753,FINISHED_OK,,72,Alejandre, Juan,./data-out/89883/client-import-files/filevine-7245/documents
89898,2020-05-15 00:23:14,751,FINISHED_OK,,60,Alvarado, Leslie (AC),./data-out/89883/client-import-files/filevine-7245/documents
89899,2020-05-15 00:23:15,768,FINISHED_OK,,56,Anderson, Michelle,./data-out/89883/client-import-files/filevine-7245/documents
89900,2020-05-15 00:23:15,1148,FINISHED_OK,,291,Arellano-Avila, Armando DKS,./data-out/89883/client-import-files/filevine-7245/documents
89901,2020-05-15 00:23:15,993,FINISHED_OK,,168,Ayars, Wayne and Natalie,./data-out/89883/client-import-files/filevine-7245/documents
89902,2020-05-15 00:23:15,778,FINISHED_OK,,86,BADGER-LOCKHART, KAYLA (w KC Badger),./data-out/89883/client-import-files/filevine-7245/documents
89903,2020-05-15 00:23:16,949,FINISHED_OK,,96,BARISCHOFF, ERICH,./data-out/89883/client-import-files/filevine-7245/documents
89893,2020-05-15 00:23:13,3639,FINISHED_OK,,2,ARB - Short v Bristol West,./data-out/89883/client-import-files/filevine-7245/documents
89905,2020-05-15 00:23:16,749,FINISHED_OK,,93,BARRETT, Makiila,./data-out/89883/client-import-files/filevine-7245/documents
89904,2020-05-15 00:23:16,1296,FINISHED_OK,,354,BARKER, MARK (Gatti Ref),./data-out/89883/client-import-files/filevine-7245/documents
89906,2020-05-15 00:23:17,766,FINISHED_OK,,66,BELL, JASON (w Marcia),./data-out/89883/client-import-files/filevine-7245/documents
89907,2020-05-15 00:23:17,830,FINISHED_OK,,117,BENNETT, JASON (Corbin),./data-out/89883/client-import-files/filevine-7245/documents
89908,2020-05-15 00:23:17,818,FINISHED_OK,,109,BERGER, RICK,./data-out/89883/client-import-files/filevine-7245/documents
89909,2020-05-15 00:23:17,1006,FINISHED_OK,,215,BRAATRZ, Rodney Allen,./data-out/89883/client-import-files/filevine-7245/documents
89910,2020-05-15 00:23:18,798,FINISHED_OK,,50,BROWN, BODI (w. R. Campbell),./data-out/89883/client-import-files/filevine-7245/documents
89911,2020-05-15 00:23:18,792,FINISHED_OK,,95,BROWNLEY, Wesley Mykeal,./data-out/89883/client-import-files/filevine-7245/documents
89912,2020-05-15 00:23:18,1049,FINISHED_OK,,71,BURKE, PATRICK JAMES,./data-out/89883/client-import-files/filevine-7245/documents
89914,2020-05-15 00:23:18,770,FINISHED_OK,,90,Badger, K.C. (w Lockhart),./data-out/89883/client-import-files/filevine-7245/documents
89915,2020-05-15 00:23:19,857,FINISHED_OK,,121,Bala-Ramesh, Malvika,./data-out/89883/client-import-files/filevine-7245/documents
89913,2020-05-15 00:23:18,1189,FINISHED_OK,,86,BURTON, MICHAEL E,./data-out/89883/client-import-files/filevine-7245/documents
89916,2020-05-15 00:23:19,1325,FINISHED_OK,,227,Baral, Isaac,./data-out/89883/client-import-files/filevine-7245/documents
89919,2020-05-15 00:23:20,819,FINISHED_OK,,125,Bateman, Lillian Sara,./data-out/89883/client-import-files/filevine-7245/documents
89917,2020-05-15 00:23:19,1490,FINISHED_OK,,100,Barba, Cristina,./data-out/89883/client-import-files/filevine-7245/documents
89920,2020-05-15 00:23:20,1096,FINISHED_OK,,148,Bell, Ellsworth (w. Mui),./data-out/89883/client-import-files/filevine-7245/documents
89922,2020-05-15 00:23:21,618,FINISHED_OK,,22,Benites, Antonia,./data-out/89883/client-import-files/filevine-7245/documents
89921,2020-05-15 00:23:20,944,FINISHED_OK,,174,Bell, Mui Truong (w. Ellsworth),./data-out/89883/client-import-files/filevine-7245/documents
89923,2020-05-15 00:23:21,857,FINISHED_OK,,97,Black, Vickie,./data-out/89883/client-import-files/filevine-7245/documents
89924,2020-05-15 00:23:21,912,FINISHED_OK,,106,Boyce, Douglas,./data-out/89883/client-import-files/filevine-7245/documents
89926,2020-05-15 00:23:22,833,FINISHED_OK,,102,CALHOON, Landon Richard,./data-out/89883/client-import-files/filevine-7245/documents
89927,2020-05-15 00:23:22,754,FINISHED_OK,,61,CAMPBELL, Roberta (w Bodi Brown),./data-out/89883/client-import-files/filevine-7245/documents
89929,2020-05-15 00:23:23,867,FINISHED_OK,,119,CHARCO, MARIA #2 (7. 2019),./data-out/89883/client-import-files/filevine-7245/documents
89928,2020-05-15 00:23:23,1282,FINISHED_OK,,379,CARR, Debra,./data-out/89883/client-import-files/filevine-7245/documents
89930,2020-05-15 00:23:24,986,FINISHED_OK,,200,CHARCO, MARIA M (2. 2019),./data-out/89883/client-import-files/filevine-7245/documents
89931,2020-05-15 00:23:24,748,FINISHED_OK,,53,COLE, GWENYTH,./data-out/89883/client-import-files/filevine-7245/documents
89925,2020-05-15 00:23:21,4342,FINISHED_OK,,2553,Buchanan, John,./data-out/89883/client-import-files/filevine-7245/documents
89933,2020-05-15 00:23:25,789,FINISHED_OK,,98,COMBS, GRANT,./data-out/89883/client-import-files/filevine-7245/documents
89932,2020-05-15 00:23:25,992,FINISHED_OK,,127,COLELL, CATHERINE (w. Kroll),./data-out/89883/client-import-files/filevine-7245/documents
89934,2020-05-15 00:23:26,765,FINISHED_OK,,59,COOPER, JOSH,./data-out/89883/client-import-files/filevine-7245/documents
89935,2020-05-15 00:23:26,763,FINISHED_OK,,100,COOPER, WAYNE,./data-out/89883/client-import-files/filevine-7245/documents
89937,2020-05-15 00:23:27,801,FINISHED_OK,,128,CROWN, Joseph,./data-out/89883/client-import-files/filevine-7245/documents
89938,2020-05-15 00:23:27,808,FINISHED_OK,,40,Cannefax, Tracie,./data-out/89883/client-import-files/filevine-7245/documents
89936,2020-05-15 00:23:26,1462,FINISHED_OK,,185,COULSON, Shaula E,./data-out/89883/client-import-files/filevine-7245/documents
89939,2020-05-15 00:23:27,760,FINISHED_OK,,67,Canon, Michael, Tamara and kids,./data-out/89883/client-import-files/filevine-7245/documents
89940,2020-05-15 00:23:27,754,FINISHED_OK,,71,Carlile, Stephen,./data-out/89883/client-import-files/filevine-7245/documents
89918,2020-05-15 00:23:19,8978,FINISHED_OK,,5874,Barker, Julie,./data-out/89883/client-import-files/filevine-7245/documents
89943,2020-05-15 00:23:28,745,FINISHED_OK,,77,Chazell, Kaley,./data-out/89883/client-import-files/filevine-7245/documents
89942,2020-05-15 00:23:28,795,FINISHED_OK,,98,Cereghino, Nicole,./data-out/89883/client-import-files/filevine-7245/documents
89941,2020-05-15 00:23:27,1843,FINISHED_OK,,766,Casillas, Gloria,./data-out/89883/client-import-files/filevine-7245/documents
89946,2020-05-15 00:23:29,733,FINISHED_OK,,94,Cordsen, Mindy,./data-out/89883/client-import-files/filevine-7245/documents
89945,2020-05-15 00:23:29,778,FINISHED_OK,,69,Collier, Beau,./data-out/89883/client-import-files/filevine-7245/documents
89947,2020-05-15 00:23:29,740,FINISHED_OK,,74,Cornwell, Jasmine (AC),./data-out/89883/client-import-files/filevine-7245/documents
89948,2020-05-15 00:23:30,653,FINISHED_OK,,12,Corona Ramirez, Cecilia,./data-out/89883/client-import-files/filevine-7245/documents
89949,2020-05-15 00:23:30,820,FINISHED_OK,,124,Corona, Jose Flores,./data-out/89883/client-import-files/filevine-7245/documents
89950,2020-05-15 00:23:30,692,FINISHED_OK,,40,Crawford, Dylan (w Orr a minor),./data-out/89883/client-import-files/filevine-7245/documents
89944,2020-05-15 00:23:28,2373,FINISHED_OK,,1133,Cole, Koa,./data-out/89883/client-import-files/filevine-7245/documents
89951,2020-05-15 00:23:30,1068,FINISHED_OK,,208,Crispen, Frankie (estate),./data-out/89883/client-import-files/filevine-7245/documents
89953,2020-05-15 00:23:31,741,FINISHED_OK,,78,Curtis, Kailee,./data-out/89883/client-import-files/filevine-7245/documents
89952,2020-05-15 00:23:31,957,FINISHED_OK,,157,Cross, Catherine,./data-out/89883/client-import-files/filevine-7245/documents
89955,2020-05-15 00:23:31,833,FINISHED_OK,,123,DANNA, Gregory,./data-out/89883/client-import-files/filevine-7245/documents
89956,2020-05-15 00:23:31,793,FINISHED_OK,,61,DANNA, MARIO,./data-out/89883/client-import-files/filevine-7245/documents
89957,2020-05-15 00:23:32,885,FINISHED_OK,,117,DAVIDSON, Richard,./data-out/89883/client-import-files/filevine-7245/documents
89958,2020-05-15 00:23:32,847,FINISHED_OK,,103,DAVISSON, DALE A #2 8.13.18 DOL,./data-out/89883/client-import-files/filevine-7245/documents
89960,2020-05-15 00:23:32,732,FINISHED_OK,,63,DONOVAN, McKenzie,./data-out/89883/client-import-files/filevine-7245/documents
89954,2020-05-15 00:23:31,2423,FINISHED_OK,,1362,Cusick, Mark,./data-out/89883/client-import-files/filevine-7245/documents
89959,2020-05-15 00:23:32,1533,FINISHED_OK,,498,DAVISSON, Dale A (closed),./data-out/89883/client-import-files/filevine-7245/documents
89962,2020-05-15 00:23:33,760,FINISHED_OK,,43,Demello, Eli,./data-out/89883/client-import-files/filevine-7245/documents
89961,2020-05-15 00:23:33,988,FINISHED_OK,,272,DeNault, Jason,./data-out/89883/client-import-files/filevine-7245/documents
89965,2020-05-15 00:23:34,788,FINISHED_OK,,67,Dolezal, Janet (AC),./data-out/89883/client-import-files/filevine-7245/documents
89964,2020-05-15 00:23:34,1129,FINISHED_OK,,72,Deters, Bernard,./data-out/89883/client-import-files/filevine-7245/documents
89968,2020-05-15 00:23:35,608,FINISHED_OK,,18,Dye, Debra,./data-out/89883/client-import-files/filevine-7245/documents
89966,2020-05-15 00:23:34,1533,FINISHED_OK,,521,Domion, Nicholas,./data-out/89883/client-import-files/filevine-7245/documents
89967,2020-05-15 00:23:35,1409,FINISHED_OK,,181,Dugan, Russell (AC),./data-out/89883/client-import-files/filevine-7245/documents
89969,2020-05-15 00:23:36,821,FINISHED_OK,,116,EDGEMON, AARON,./data-out/89883/client-import-files/filevine-7245/documents
89970,2020-05-15 00:23:36,1219,FINISHED_OK,,353,ENGLAND, Julie,./data-out/89883/client-import-files/filevine-7245/documents
89971,2020-05-15 00:23:36,837,FINISHED_OK,,80,EVANS, Russell,./data-out/89883/client-import-files/filevine-7245/documents
89972,2020-05-15 00:23:36,966,FINISHED_OK,,217,EWING, Mari,./data-out/89883/client-import-files/filevine-7245/documents
89973,2020-05-15 00:23:37,1173,FINISHED_OK,,245,Eck, Jason,./data-out/89883/client-import-files/filevine-7245/documents
89975,2020-05-15 00:23:37,762,FINISHED_OK,,64,England, Julie #3 (6.2019 DL),./data-out/89883/client-import-files/filevine-7245/documents
89963,2020-05-15 00:23:33,5515,FINISHED_OK,,2893,Denney, Nannette,./data-out/89883/client-import-files/filevine-7245/documents
89977,2020-05-15 00:23:38,794,FINISHED_OK,,92,Engle, Rebekah,./data-out/89883/client-import-files/filevine-7245/documents
89976,2020-05-15 00:23:38,1212,FINISHED_OK,,76,England, Julie 2  (2.2019),./data-out/89883/client-import-files/filevine-7245/documents
89978,2020-05-15 00:23:39,771,FINISHED_OK,,88,FAUGHT, MICHAEL,./data-out/89883/client-import-files/filevine-7245/documents
89974,2020-05-15 00:23:37,2567,FINISHED_OK,,970,Eisenhut, Rachel,./data-out/89883/client-import-files/filevine-7245/documents
89979,2020-05-15 00:23:39,898,FINISHED_OK,,141,FAVER, Betty,./data-out/89883/client-import-files/filevine-7245/documents
89981,2020-05-15 00:23:40,792,FINISHED_OK,,123,FOLTZ, Ashley & kids,./data-out/89883/client-import-files/filevine-7245/documents
89980,2020-05-15 00:23:39,1026,FINISHED_OK,,221,FLAGER,  Megan,./data-out/89883/client-import-files/filevine-7245/documents
89982,2020-05-15 00:23:40,996,FINISHED_OK,,175,FOY, Dorothea,./data-out/89883/client-import-files/filevine-7245/documents
89983,2020-05-15 00:23:40,685,FINISHED_OK,,47,FRIEDRICH, ALEXANDER,./data-out/89883/client-import-files/filevine-7245/documents
89984,2020-05-15 00:23:40,775,FINISHED_OK,,54,Faessler, Marissa,./data-out/89883/client-import-files/filevine-7245/documents
89986,2020-05-15 00:23:41,754,FINISHED_OK,,71,Files, Carol,./data-out/89883/client-import-files/filevine-7245/documents
89987,2020-05-15 00:23:41,1200,FINISHED_OK,,275,Fisher, Elizabeth,./data-out/89883/client-import-files/filevine-7245/documents
89989,2020-05-15 00:23:41,752,FINISHED_OK,,48,Franco, Consuelo,./data-out/89883/client-import-files/filevine-7245/documents
89988,2020-05-15 00:23:41,1528,FINISHED_OK,,661,Fontleroy, Anthony,./data-out/89883/client-import-files/filevine-7245/documents
89990,2020-05-15 00:23:42,1129,FINISHED_OK,,169,Fredrickson, Andrew,./data-out/89883/client-import-files/filevine-7245/documents
89991,2020-05-15 00:23:42,868,FINISHED_OK,,58,Fredrickson, Karen,./data-out/89883/client-import-files/filevine-7245/documents
89994,2020-05-15 00:23:43,873,FINISHED_OK,,125,GALLANDT, SARA,./data-out/89883/client-import-files/filevine-7245/documents
89993,2020-05-15 00:23:43,962,FINISHED_OK,,155,GALLANDT, PATRICK,./data-out/89883/client-import-files/filevine-7245/documents
89985,2020-05-15 00:23:40,3751,FINISHED_OK,,1770,Fairchild, William (Levi), Olivia and Chloe,./data-out/89883/client-import-files/filevine-7245/documents
89992,2020-05-15 00:23:43,1494,FINISHED_OK,,421,Fry, Scott,./data-out/89883/client-import-files/filevine-7245/documents
89995,2020-05-15 00:23:44,805,FINISHED_OK,,51,GARCIA, Jose Analco,./data-out/89883/client-import-files/filevine-7245/documents
89996,2020-05-15 00:23:44,999,FINISHED_OK,,168,GARCIA, ROBERTO,./data-out/89883/client-import-files/filevine-7245/documents
89997,2020-05-15 00:23:44,861,FINISHED_OK,,120,GARCIA, SONJA & Sarah (krh 9.22.19 DOL),./data-out/89883/client-import-files/filevine-7245/documents
89999,2020-05-15 00:23:45,920,FINISHED_OK,,96,GOLDSBY, PATRICIA (Tricia),./data-out/89883/client-import-files/filevine-7245/documents
90001,2020-05-15 00:23:45,771,FINISHED_OK,,99,GOODWIN, Jeanine #2,./data-out/89883/client-import-files/filevine-7245/documents
90000,2020-05-15 00:23:45,866,FINISHED_OK,,133,GONZALES, JERRY,./data-out/89883/client-import-files/filevine-7245/documents
90002,2020-05-15 00:23:46,809,FINISHED_OK,,106,GREGG, JEREMIAH,./data-out/89883/client-import-files/filevine-7245/documents
90003,2020-05-15 00:23:46,853,FINISHED_OK,,72,Gabel, Kathleen,./data-out/89883/client-import-files/filevine-7245/documents
89998,2020-05-15 00:23:44,2950,FINISHED_OK,,1868,GATES, Karen M,./data-out/89883/client-import-files/filevine-7245/documents
90006,2020-05-15 00:23:47,765,FINISHED_OK,,56,Gambit, Patricia,./data-out/89883/client-import-files/filevine-7245/documents
90005,2020-05-15 00:23:46,990,FINISHED_OK,,168,Gallagher, Linda (Lynn),./data-out/89883/client-import-files/filevine-7245/documents
90004,2020-05-15 00:23:46,1778,FINISHED_OK,,461,Gaffney, Troy,./data-out/89883/client-import-files/filevine-7245/documents
90009,2020-05-15 00:23:47,940,FINISHED_OK,,175,Garrison, Jodie,./data-out/89883/client-import-files/filevine-7245/documents
90008,2020-05-15 00:23:47,1023,FINISHED_OK,,246,Garfias, Jose & Vicente,./data-out/89883/client-import-files/filevine-7245/documents
90010,2020-05-15 00:23:48,836,FINISHED_OK,,88,Gaustad, Crystal,./data-out/89883/client-import-files/filevine-7245/documents
90007,2020-05-15 00:23:47,1454,FINISHED_OK,,16,Garcia, Ruben (9.4.2021),./data-out/89883/client-import-files/filevine-7245/documents
90011,2020-05-15 00:23:48,802,FINISHED_OK,,76,Genthner, Paula,./data-out/89883/client-import-files/filevine-7245/documents
90014,2020-05-15 00:23:49,839,FINISHED_OK,,105,Gonzalez Zapata, Lucia,./data-out/89883/client-import-files/filevine-7245/documents
90012,2020-05-15 00:23:48,964,FINISHED_OK,,174,Gillette, Melissa,./data-out/89883/client-import-files/filevine-7245/documents
90013,2020-05-15 00:23:48,991,FINISHED_OK,,182,Glazebrook, Tedd, Emily and kids,./data-out/89883/client-import-files/filevine-7245/documents
90015,2020-05-15 00:23:49,716,FINISHED_OK,,67,Gonzalez, Andres (AC),./data-out/89883/client-import-files/filevine-7245/documents
90017,2020-05-15 00:23:49,745,FINISHED_OK,,65,Gonzalez, Erik (AC),./data-out/89883/client-import-files/filevine-7245/documents
90016,2020-05-15 00:23:49,819,FINISHED_OK,,45,Gonzalez, David and San Juana,./data-out/89883/client-import-files/filevine-7245/documents
90019,2020-05-15 00:23:50,739,FINISHED_OK,,93,Grimm, Jeremy,./data-out/89883/client-import-files/filevine-7245/documents
90020,2020-05-15 00:23:50,733,FINISHED_OK,,79,Grove, Kathleen,./data-out/89883/client-import-files/filevine-7245/documents
90021,2020-05-15 00:23:50,1049,FINISHED_OK,,234,Gruenfelder, Bethany Rose,./data-out/89883/client-import-files/filevine-7245/documents
90018,2020-05-15 00:23:49,1864,FINISHED_OK,,804,Goodwin, Jeanine (Closed),./data-out/89883/client-import-files/filevine-7245/documents
90022,2020-05-15 00:23:51,793,FINISHED_OK,,101,Gutierrez, Jose (Estate),./data-out/89883/client-import-files/filevine-7245/documents
90024,2020-05-15 00:23:51,803,FINISHED_OK,,79,HANSON, CHRISTOPHER (TORT),./data-out/89883/client-import-files/filevine-7245/documents
90023,2020-05-15 00:23:51,1223,FINISHED_OK,,403,HAHN, TERRI,./data-out/89883/client-import-files/filevine-7245/documents
90026,2020-05-15 00:23:51,718,FINISHED_OK,,62,HART, SERENA (2020 DL),./data-out/89883/client-import-files/filevine-7245/documents
90025,2020-05-15 00:23:51,900,FINISHED_OK,,130,HARP, JERRY LEE,./data-out/89883/client-import-files/filevine-7245/documents
90030,2020-05-15 00:23:52,736,FINISHED_OK,,73,HENSLEY, Verna,./data-out/89883/client-import-files/filevine-7245/documents
90029,2020-05-15 00:23:52,1236,FINISHED_OK,,376,HAWKINS, VANESSA,./data-out/89883/client-import-files/filevine-7245/documents
90031,2020-05-15 00:23:53,753,FINISHED_OK,,53,HOLMES, CODI,./data-out/89883/client-import-files/filevine-7245/documents
90028,2020-05-15 00:23:52,1589,FINISHED_OK,,474,HARVEAUX, ELLEN M. (slip.fall),./data-out/89883/client-import-files/filevine-7245/documents
90027,2020-05-15 00:23:52,1822,FINISHED_OK,,534,HART, Serena & Jazzelynn (daughter) 2017,./data-out/89883/client-import-files/filevine-7245/documents
90032,2020-05-15 00:23:53,838,FINISHED_OK,,116,HOUCK, Eugene,./data-out/89883/client-import-files/filevine-7245/documents
90033,2020-05-15 00:23:54,794,FINISHED_OK,,114,HUNT, JOSHUA,./data-out/89883/client-import-files/filevine-7245/documents
90034,2020-05-15 00:23:54,780,FINISHED_OK,,69,HUNTER, Jason Casey,./data-out/89883/client-import-files/filevine-7245/documents
90035,2020-05-15 00:23:54,757,FINISHED_OK,,60,HUTCHINS, ANNA,./data-out/89883/client-import-files/filevine-7245/documents
90036,2020-05-15 00:23:54,757,FINISHED_OK,,53,Hager, Heather,./data-out/89883/client-import-files/filevine-7245/documents
90038,2020-05-15 00:23:55,748,FINISHED_OK,,73,Hammack, Noah,./data-out/89883/client-import-files/filevine-7245/documents
90037,2020-05-15 00:23:55,1056,FINISHED_OK,,285,Hames, George,./data-out/89883/client-import-files/filevine-7245/documents
90040,2020-05-15 00:23:55,1330,FINISHED_OK,,344,Hart, Serena(2) CLOSED 2013 DOL - ignore on FV import,./data-out/89883/client-import-files/filevine-7245/documents
90039,2020-05-15 00:23:55,1773,FINISHED_OK,,649,Hart, Laurie,./data-out/89883/client-import-files/filevine-7245/documents
90042,2020-05-15 00:23:56,851,FINISHED_OK,,103,Hathaway, Justin,./data-out/89883/client-import-files/filevine-7245/documents
90041,2020-05-15 00:23:55,1315,FINISHED_OK,,326,Harvey, Blake,./data-out/89883/client-import-files/filevine-7245/documents
90045,2020-05-15 00:23:57,607,FINISHED_OK,,26,Hernandez, Jocelyn,./data-out/89883/client-import-files/filevine-7245/documents
90043,2020-05-15 00:23:56,703,FINISHED_OK,,33,Hays, Janice,./data-out/89883/client-import-files/filevine-7245/documents
90044,2020-05-15 00:23:56,966,FINISHED_OK,,190,Hays, Timothy (estate),./data-out/89883/client-import-files/filevine-7245/documents
90046,2020-05-15 00:23:57,1025,FINISHED_OK,,92,Hinds, Alicia,./data-out/89883/client-import-files/filevine-7245/documents
90047,2020-05-15 00:23:57,809,FINISHED_OK,,123,Hohstadt, Sarah,./data-out/89883/client-import-files/filevine-7245/documents
90048,2020-05-15 00:23:57,901,FINISHED_OK,,112,Howell, Madeline (Heider),./data-out/89883/client-import-files/filevine-7245/documents
90049,2020-05-15 00:23:57,841,FINISHED_OK,,80,Howell, Ryan,./data-out/89883/client-import-files/filevine-7245/documents
90050,2020-05-15 00:23:58,803,FINISHED_OK,,123,Hoy, Vivian,./data-out/89883/client-import-files/filevine-7245/documents
90053,2020-05-15 00:23:58,712,FINISHED_OK,,53,JENNICHES, FRITZ,./data-out/89883/client-import-files/filevine-7245/documents
90052,2020-05-15 00:23:58,1076,FINISHED_OK,,247,JANCSEK, Paul,./data-out/89883/client-import-files/filevine-7245/documents
90054,2020-05-15 00:23:59,728,FINISHED_OK,,47,JIMENEZ, DIEGO (2  1.2020 w Tovar),./data-out/89883/client-import-files/filevine-7245/documents
90051,2020-05-15 00:23:58,1449,FINISHED_OK,,466,Inman, Susan,./data-out/89883/client-import-files/filevine-7245/documents
90056,2020-05-15 00:23:59,700,FINISHED_OK,,46,JOHNSON, SEAN,./data-out/89883/client-import-files/filevine-7245/documents
90057,2020-05-15 00:23:59,744,FINISHED_OK,,43,Jeanfreau, Michael,./data-out/89883/client-import-files/filevine-7245/documents
90055,2020-05-15 00:23:59,1088,FINISHED_OK,,302,JIMENEZ, Diego (1 10.2018),./data-out/89883/client-import-files/filevine-7245/documents
90060,2020-05-15 00:24:00,801,FINISHED_OK,,65,Johnson Putnam, Stefani,./data-out/89883/client-import-files/filevine-7245/documents
90058,2020-05-15 00:23:59,1566,FINISHED_OK,,480,Jenkins, Delia,./data-out/89883/client-import-files/filevine-7245/documents
90061,2020-05-15 00:24:00,1285,FINISHED_OK,,413,Johnson, Bruce,./data-out/89883/client-import-files/filevine-7245/documents
90063,2020-05-15 00:24:01,815,FINISHED_OK,,122,Jordal, David,./data-out/89883/client-import-files/filevine-7245/documents
90064,2020-05-15 00:24:01,748,FINISHED_OK,,111,Jordan, Tiffany,./data-out/89883/client-import-files/filevine-7245/documents
90062,2020-05-15 00:24:01,1925,FINISHED_OK,,764,Johnson, Karen,./data-out/89883/client-import-files/filevine-7245/documents
90066,2020-05-15 00:24:02,779,FINISHED_OK,,88,KNIGHT, Michael,./data-out/89883/client-import-files/filevine-7245/documents
90065,2020-05-15 00:24:02,1343,FINISHED_OK,,404,KING, Victoria,./data-out/89883/client-import-files/filevine-7245/documents
90059,2020-05-15 00:24:00,3483,FINISHED_OK,,1639,Jensen, Melissa Joy,./data-out/89883/client-import-files/filevine-7245/documents
90067,2020-05-15 00:24:03,1012,FINISHED_OK,,135,KROLL, DAVID A  (w Colell),./data-out/89883/client-import-files/filevine-7245/documents
90068,2020-05-15 00:24:03,823,FINISHED_OK,,108,KUSCHNICK, TIM,./data-out/89883/client-import-files/filevine-7245/documents
90069,2020-05-15 00:24:03,651,FINISHED_OK,,19,Keller, Lisa,./data-out/89883/client-import-files/filevine-7245/documents
90072,2020-05-15 00:24:04,625,FINISHED_OK,,16,Khmelev, Veniamin (Ben),./data-out/89883/client-import-files/filevine-7245/documents
90071,2020-05-15 00:24:04,800,FINISHED_OK,,101,Khmelev, Daniil,./data-out/89883/client-import-files/filevine-7245/documents
90070,2020-05-15 00:24:03,1250,FINISHED_OK,,279,Kelsh, Tim,./data-out/89883/client-import-files/filevine-7245/documents
90076,2020-05-15 00:24:05,734,FINISHED_OK,,60,LAURENT, JANELLE,./data-out/89883/client-import-files/filevine-7245/documents
90075,2020-05-15 00:24:05,887,FINISHED_OK,,75,Krohn, Ian,./data-out/89883/client-import-files/filevine-7245/documents
90073,2020-05-15 00:24:04,1964,FINISHED_OK,,894,Knieling, Dave,./data-out/89883/client-import-files/filevine-7245/documents
90074,2020-05-15 00:24:04,1486,FINISHED_OK,,590,Kometz, Jamie,./data-out/89883/client-import-files/filevine-7245/documents
90077,2020-05-15 00:24:05,775,FINISHED_OK,,72,LEHTO, Tony (Cleary Ref),./data-out/89883/client-import-files/filevine-7245/documents
90078,2020-05-15 00:24:06,792,FINISHED_OK,,84,LEIGHTY, BETHANY M. (krh),./data-out/89883/client-import-files/filevine-7245/documents
90079,2020-05-15 00:24:06,903,FINISHED_OK,,160,Lapizco, Christopher,./data-out/89883/client-import-files/filevine-7245/documents
90080,2020-05-15 00:24:06,967,FINISHED_OK,,146,Lara, Mario,./data-out/89883/client-import-files/filevine-7245/documents
90081,2020-05-15 00:24:06,760,FINISHED_OK,,38,Larsen, Aaron,./data-out/89883/client-import-files/filevine-7245/documents
90082,2020-05-15 00:24:06,1009,FINISHED_OK,,262,Lausmann, Marianne,./data-out/89883/client-import-files/filevine-7245/documents
90083,2020-05-15 00:24:07,805,FINISHED_OK,,97,Lawrence, Hans,./data-out/89883/client-import-files/filevine-7245/documents
90085,2020-05-15 00:24:07,606,FINISHED_OK,,18,Lazott, Mildred,./data-out/89883/client-import-files/filevine-7245/documents
90086,2020-05-15 00:24:07,644,FINISHED_OK,,22,Lazott, Steven,./data-out/89883/client-import-files/filevine-7245/documents
90087,2020-05-15 00:24:08,671,FINISHED_OK,,29,Leen, Rosita,./data-out/89883/client-import-files/filevine-7245/documents
90088,2020-05-15 00:24:08,909,FINISHED_OK,,139,Leeper, Emma Grace,./data-out/89883/client-import-files/filevine-7245/documents
90091,2020-05-15 00:24:09,637,FINISHED_OK,,24,Leon, De RomeroEva (2),./data-out/89883/client-import-files/filevine-7245/documents
90090,2020-05-15 00:24:08,1049,FINISHED_OK,,201,Leon De Romero, Eva,./data-out/89883/client-import-files/filevine-7245/documents
90089,2020-05-15 00:24:08,1375,FINISHED_OK,,353,Leggett, Edith,./data-out/89883/client-import-files/filevine-7245/documents
90093,2020-05-15 00:24:09,755,FINISHED_OK,,76,Lewis, Earl,./data-out/89883/client-import-files/filevine-7245/documents
90092,2020-05-15 00:24:09,1013,FINISHED_OK,,198,Lewis, Charles,./data-out/89883/client-import-files/filevine-7245/documents
90095,2020-05-15 00:24:10,799,FINISHED_OK,,75,Lobo, Melissa,./data-out/89883/client-import-files/filevine-7245/documents
90096,2020-05-15 00:24:10,939,FINISHED_OK,,191,Lombard, Lisa,./data-out/89883/client-import-files/filevine-7245/documents
90097,2020-05-15 00:24:11,666,FINISHED_OK,,20,Lopez (Robles), Maria,./data-out/89883/client-import-files/filevine-7245/documents
90098,2020-05-15 00:24:11,825,FINISHED_OK,,71,Lopez, Adan,./data-out/89883/client-import-files/filevine-7245/documents
90099,2020-05-15 00:24:12,697,FINISHED_OK,,23,Lopez, Leslie,./data-out/89883/client-import-files/filevine-7245/documents
90084,2020-05-15 00:24:07,5343,FINISHED_OK,,4954,Lay, Keith,./data-out/89883/client-import-files/filevine-7245/documents
90094,2020-05-15 00:24:09,3353,FINISHED_OK,,1015,Lewis, Richard Allen,./data-out/89883/client-import-files/filevine-7245/documents
90102,2020-05-15 00:24:12,764,FINISHED_OK,,2,Lua, Kimberly (Minor),./data-out/89883/client-import-files/filevine-7245/documents
90101,2020-05-15 00:24:12,839,FINISHED_OK,,121,Lua (Garcia), Sonia,./data-out/89883/client-import-files/filevine-7245/documents
90103,2020-05-15 00:24:13,627,FINISHED_OK,,1,Lua, Mario (minor),./data-out/89883/client-import-files/filevine-7245/documents
90100,2020-05-15 00:24:12,1531,FINISHED_OK,,300,Lovelace, Tessa fka Kevin Straw,./data-out/89883/client-import-files/filevine-7245/documents
90104,2020-05-15 00:24:13,675,FINISHED_OK,,30,Lua, Mario,./data-out/89883/client-import-files/filevine-7245/documents
90105,2020-05-15 00:24:13,803,FINISHED_OK,,108,Macias, Hector,./data-out/89883/client-import-files/filevine-7245/documents
90106,2020-05-15 00:24:13,736,FINISHED_OK,,29,Maier, Samantha & Lopez (kids),./data-out/89883/client-import-files/filevine-7245/documents
90107,2020-05-15 00:24:14,680,FINISHED_OK,,11,Malae, Christina,./data-out/89883/client-import-files/filevine-7245/documents
90109,2020-05-15 00:24:14,785,FINISHED_OK,,71,Marchal, Sarah,./data-out/89883/client-import-files/filevine-7245/documents
90108,2020-05-15 00:24:14,1157,FINISHED_OK,,354,Malm, Margeta,./data-out/89883/client-import-files/filevine-7245/documents
90111,2020-05-15 00:24:14,808,FINISHED_OK,,75,Marshall, Robyn,./data-out/89883/client-import-files/filevine-7245/documents
90110,2020-05-15 00:24:14,1144,FINISHED_OK,,154,Marshall, Larry,./data-out/89883/client-import-files/filevine-7245/documents
90112,2020-05-15 00:24:15,664,FINISHED_OK,,20,Mashia, Adam,./data-out/89883/client-import-files/filevine-7245/documents
90116,2020-05-15 00:24:15,669,FINISHED_OK,,33,Maul, Colby,./data-out/89883/client-import-files/filevine-7245/documents
90114,2020-05-15 00:24:15,1041,FINISHED_OK,,261,Mata, Sandra,./data-out/89883/client-import-files/filevine-7245/documents
90113,2020-05-15 00:24:15,1745,FINISHED_OK,,735,Mason, Eugene (estate),./data-out/89883/client-import-files/filevine-7245/documents
90115,2020-05-15 00:24:15,1427,FINISHED_OK,,584,Matthies, Susan,./data-out/89883/client-import-files/filevine-7245/documents
90117,2020-05-15 00:24:16,731,FINISHED_OK,,81,McCrum, Sharon,./data-out/89883/client-import-files/filevine-7245/documents
90118,2020-05-15 00:24:16,738,FINISHED_OK,,68,McCubbins.Gabe,./data-out/89883/client-import-files/filevine-7245/documents
90120,2020-05-15 00:24:17,747,FINISHED_OK,,49,McFarland, Bertha (1.4.2020),./data-out/89883/client-import-files/filevine-7245/documents
90119,2020-05-15 00:24:17,788,FINISHED_OK,,69,McCullough, Betty ESTATE,./data-out/89883/client-import-files/filevine-7245/documents
90121,2020-05-15 00:24:17,776,FINISHED_OK,,35,McFarland, Bertha (11.7.2018),./data-out/89883/client-import-files/filevine-7245/documents
90122,2020-05-15 00:24:17,767,FINISHED_OK,,60,Medley, Russell,./data-out/89883/client-import-files/filevine-7245/documents
90123,2020-05-15 00:24:17,925,FINISHED_OK,,149,Mejia, Nina,./data-out/89883/client-import-files/filevine-7245/documents
90125,2020-05-15 00:24:18,871,FINISHED_OK,,74,Mensah, Tchotchovi,./data-out/89883/client-import-files/filevine-7245/documents
90124,2020-05-15 00:24:18,1117,FINISHED_OK,,167,Mendoza, Aubree,./data-out/89883/client-import-files/filevine-7245/documents
90126,2020-05-15 00:24:18,958,FINISHED_OK,,181,Merrill, Daniel,./data-out/89883/client-import-files/filevine-7245/documents
90127,2020-05-15 00:24:18,772,FINISHED_OK,,71,Milam, Isabella,./data-out/89883/client-import-files/filevine-7245/documents
90130,2020-05-15 00:24:19,686,FINISHED_OK,,17,Miotke, Roslyn (9.24.2019),./data-out/89883/client-import-files/filevine-7245/documents
90128,2020-05-15 00:24:18,942,FINISHED_OK,,140,Milewski, Brandon,./data-out/89883/client-import-files/filevine-7245/documents
90131,2020-05-15 00:24:19,757,FINISHED_OK,,82,Miotke, Roslyn,./data-out/89883/client-import-files/filevine-7245/documents
90132,2020-05-15 00:24:19,768,FINISHED_OK,,81,Mitchell, Lisa,./data-out/89883/client-import-files/filevine-7245/documents
90133,2020-05-15 00:24:19,1188,FINISHED_OK,,406,Mix, Gretchen,./data-out/89883/client-import-files/filevine-7245/documents
90134,2020-05-15 00:24:20,1331,FINISHED_OK,,557,Mize, Troy,./data-out/89883/client-import-files/filevine-7245/documents
90136,2020-05-15 00:24:21,747,FINISHED_OK,,73,Moreno, Marisol,./data-out/89883/client-import-files/filevine-7245/documents
90135,2020-05-15 00:24:20,1252,FINISHED_OK,,380,Moreno, Jose,./data-out/89883/client-import-files/filevine-7245/documents
90137,2020-05-15 00:24:21,717,FINISHED_OK,,44,Morgan, Calvin,./data-out/89883/client-import-files/filevine-7245/documents
90139,2020-05-15 00:24:21,831,FINISHED_OK,,117,Mujlid, Larin,./data-out/89883/client-import-files/filevine-7245/documents
90129,2020-05-15 00:24:19,3893,FINISHED_OK,,1692,Miller, Matt,./data-out/89883/client-import-files/filevine-7245/documents
90141,2020-05-15 00:24:22,759,FINISHED_OK,,79,Murray, Janet,./data-out/89883/client-import-files/filevine-7245/documents
90140,2020-05-15 00:24:22,1030,FINISHED_OK,,206,Munns, Carla,./data-out/89883/client-import-files/filevine-7245/documents
90142,2020-05-15 00:24:23,1000,FINISHED_OK,,147,Murray, Michael,./data-out/89883/client-import-files/filevine-7245/documents
90144,2020-05-15 00:24:23,859,FINISHED_OK,,97,Muzzy, Chelsea,./data-out/89883/client-import-files/filevine-7245/documents
90145,2020-05-15 00:24:24,749,FINISHED_OK,,76,Myers, Sarah,./data-out/89883/client-import-files/filevine-7245/documents
90143,2020-05-15 00:24:23,1525,FINISHED_OK,,383,Mushombe, Oswald,./data-out/89883/client-import-files/filevine-7245/documents
90138,2020-05-15 00:24:21,3250,FINISHED_OK,,1498,Morris, Hilary (9.26.16),./data-out/89883/client-import-files/filevine-7245/documents
90147,2020-05-15 00:24:24,655,FINISHED_OK,,12,Natvig, Greg,./data-out/89883/client-import-files/filevine-7245/documents
90146,2020-05-15 00:24:24,1088,FINISHED_OK,,248,Myers, Stacie,./data-out/89883/client-import-files/filevine-7245/documents
90149,2020-05-15 00:24:25,798,FINISHED_OK,,88,Nichols, Carol,./data-out/89883/client-import-files/filevine-7245/documents
90148,2020-05-15 00:24:25,950,FINISHED_OK,,159,Nestori, Keneke,./data-out/89883/client-import-files/filevine-7245/documents
90150,2020-05-15 00:24:25,639,FINISHED_OK,,34,Nichols, Jessica,./data-out/89883/client-import-files/filevine-7245/documents
90151,2020-05-15 00:24:25,874,FINISHED_OK,,50,Niehus, Alyssa,./data-out/89883/client-import-files/filevine-7245/documents
90152,2020-05-15 00:24:25,645,FINISHED_OK,,15,Norton, Anna,./data-out/89883/client-import-files/filevine-7245/documents
90154,2020-05-15 00:24:26,841,FINISHED_OK,,111,Nungaray, Sylvia,./data-out/89883/client-import-files/filevine-7245/documents
90155,2020-05-15 00:24:26,684,FINISHED_OK,,4,O'Boyle, Evelyn Joyce,./data-out/89883/client-import-files/filevine-7245/documents
90156,2020-05-15 00:24:26,896,FINISHED_OK,,109,ORR, AUSTIN & CHRISTIAN (w crawford),./data-out/89883/client-import-files/filevine-7245/documents
90158,2020-05-15 00:24:27,651,FINISHED_OK,,27,Ocampo, Alessandra,./data-out/89883/client-import-files/filevine-7245/documents
90157,2020-05-15 00:24:26,834,FINISHED_OK,,127,ORR, JESSICA a minor (w crawford),./data-out/89883/client-import-files/filevine-7245/documents
90159,2020-05-15 00:24:27,919,FINISHED_OK,,174,Officer, Nathan,./data-out/89883/client-import-files/filevine-7245/documents
90153,2020-05-15 00:24:26,2677,FINISHED_OK,,1202,Nunez, Martha,./data-out/89883/client-import-files/filevine-7245/documents
90161,2020-05-15 00:24:27,1032,FINISHED_OK,,300,Oliver, Kathleen,./data-out/89883/client-import-files/filevine-7245/documents
90160,2020-05-15 00:24:27,1487,FINISHED_OK,,376,Oliveira, Quinn,./data-out/89883/client-import-files/filevine-7245/documents
90162,2020-05-15 00:24:28,991,FINISHED_OK,,225,Olsen, Jessica,./data-out/89883/client-import-files/filevine-7245/documents
90163,2020-05-15 00:24:28,981,FINISHED_OK,,163,Ongstad, Kayla,./data-out/89883/client-import-files/filevine-7245/documents
90165,2020-05-15 00:24:29,764,FINISHED_OK,,54,Ortiz, Tammy,./data-out/89883/client-import-files/filevine-7245/documents
90164,2020-05-15 00:24:28,1273,FINISHED_OK,,126,Orr, Courtney,./data-out/89883/client-import-files/filevine-7245/documents
90166,2020-05-15 00:24:29,782,FINISHED_OK,,106,Osborne, James,./data-out/89883/client-import-files/filevine-7245/documents
90167,2020-05-15 00:24:29,737,FINISHED_OK,,55,Osborne, Margaret,./data-out/89883/client-import-files/filevine-7245/documents
90168,2020-05-15 00:24:30,564,FINISHED_OK,,12,Owens, Austin Glenn,./data-out/89883/client-import-files/filevine-7245/documents
90169,2020-05-15 00:24:30,749,FINISHED_OK,,48,Ownby, Keith (5.8.19),./data-out/89883/client-import-files/filevine-7245/documents
90171,2020-05-15 00:24:30,771,FINISHED_OK,,96,PUTMAN, William,./data-out/89883/client-import-files/filevine-7245/documents
90170,2020-05-15 00:24:30,1014,FINISHED_OK,,191,PACQUING-NARVARTE, Christianne,./data-out/89883/client-import-files/filevine-7245/documents
90172,2020-05-15 00:24:30,676,FINISHED_OK,,23,Pacheco, Edgar,./data-out/89883/client-import-files/filevine-7245/documents
90173,2020-05-15 00:24:30,742,FINISHED_OK,,70,Paletta, Angie,./data-out/89883/client-import-files/filevine-7245/documents
90174,2020-05-15 00:24:31,1026,FINISHED_OK,,222,Palmer, William,./data-out/89883/client-import-files/filevine-7245/documents
90177,2020-05-15 00:24:31,668,FINISHED_OK,,35,Peart, Martha,./data-out/89883/client-import-files/filevine-7245/documents
90175,2020-05-15 00:24:31,1360,FINISHED_OK,,452,Parker, Elizabeth,./data-out/89883/client-import-files/filevine-7245/documents
90178,2020-05-15 00:24:32,644,FINISHED_OK,,31,Pederson, Raegan,./data-out/89883/client-import-files/filevine-7245/documents
90179,2020-05-15 00:24:32,781,FINISHED_OK,,76,Percy, Jaclyn,./data-out/89883/client-import-files/filevine-7245/documents
90180,2020-05-15 00:24:32,895,FINISHED_OK,,127,Percy, Veronica,./data-out/89883/client-import-files/filevine-7245/documents
90181,2020-05-15 00:24:32,781,FINISHED_OK,,59,Perez-Ramos, Jose,./data-out/89883/client-import-files/filevine-7245/documents
90176,2020-05-15 00:24:31,2843,FINISHED_OK,,1483,Parker, Jamie,./data-out/89883/client-import-files/filevine-7245/documents
90182,2020-05-15 00:24:33,1215,FINISHED_OK,,389,Peters, Carol,./data-out/89883/client-import-files/filevine-7245/documents
90184,2020-05-15 00:24:33,756,FINISHED_OK,,78,Peterson, Daniel,./data-out/89883/client-import-files/filevine-7245/documents
90185,2020-05-15 00:24:34,687,FINISHED_OK,,44,Petty, Christy,./data-out/89883/client-import-files/filevine-7245/documents
90183,2020-05-15 00:24:33,1629,FINISHED_OK,,651,Peterson, Allyson,./data-out/89883/client-import-files/filevine-7245/documents
90186,2020-05-15 00:24:34,909,FINISHED_OK,,134,Pharris, Steve,./data-out/89883/client-import-files/filevine-7245/documents
90188,2020-05-15 00:24:34,680,FINISHED_OK,,29,Pillsbury, Laura,./data-out/89883/client-import-files/filevine-7245/documents
90187,2020-05-15 00:24:34,1480,FINISHED_OK,,566,Pierce, Blake,./data-out/89883/client-import-files/filevine-7245/documents
90189,2020-05-15 00:24:35,801,FINISHED_OK,,122,Plummer, Michele,./data-out/89883/client-import-files/filevine-7245/documents
90193,2020-05-15 00:24:35,761,FINISHED_OK,,44,Quintanilla, Mirna (12.11.18 MVA),./data-out/89883/client-import-files/filevine-7245/documents
90191,2020-05-15 00:24:35,1264,FINISHED_OK,,377,Potts, Robert,./data-out/89883/client-import-files/filevine-7245/documents
90192,2020-05-15 00:24:35,932,FINISHED_OK,,155,Provost, Shawn,./data-out/89883/client-import-files/filevine-7245/documents
90190,2020-05-15 00:24:35,1794,FINISHED_OK,,518,Podmajersky, Dorka,./data-out/89883/client-import-files/filevine-7245/documents
90194,2020-05-15 00:24:36,618,FINISHED_OK,,15,Rae, Amanda,./data-out/89883/client-import-files/filevine-7245/documents
90195,2020-05-15 00:24:36,634,FINISHED_OK,,18,Rae, Matt,./data-out/89883/client-import-files/filevine-7245/documents
90197,2020-05-15 00:24:37,937,FINISHED_OK,,150,Ramirez, Sonia,./data-out/89883/client-import-files/filevine-7245/documents
90198,2020-05-15 00:24:37,962,FINISHED_OK,,231,Ramos Aguilar, Veronica,./data-out/89883/client-import-files/filevine-7245/documents
90196,2020-05-15 00:24:36,1672,FINISHED_OK,,395,Ramirez, Deisy,./data-out/89883/client-import-files/filevine-7245/documents
90200,2020-05-15 00:24:38,782,FINISHED_OK,,104,Ray, Steven,./data-out/89883/client-import-files/filevine-7245/documents
90201,2020-05-15 00:24:38,744,FINISHED_OK,,70,Rayburn, Lee,./data-out/89883/client-import-files/filevine-7245/documents
90202,2020-05-15 00:24:38,699,FINISHED_OK,,40,Reilly, Megan,./data-out/89883/client-import-files/filevine-7245/documents
90204,2020-05-15 00:24:39,903,FINISHED_OK,,83,Reyes, Edward,./data-out/89883/client-import-files/filevine-7245/documents
90205,2020-05-15 00:24:39,792,FINISHED_OK,,52,Richardson, Gloria,./data-out/89883/client-import-files/filevine-7245/documents
90206,2020-05-15 00:24:40,747,FINISHED_OK,,57,Ring, James,./data-out/89883/client-import-files/filevine-7245/documents
90207,2020-05-15 00:24:40,755,FINISHED_OK,,78,Rivera, Francisco,./data-out/89883/client-import-files/filevine-7245/documents
90203,2020-05-15 00:24:38,2092,FINISHED_OK,,802,Reutov & Skorohodoff Family,./data-out/89883/client-import-files/filevine-7245/documents
90199,2020-05-15 00:24:37,3731,FINISHED_OK,,1907,Ramos, Theresa,./data-out/89883/client-import-files/filevine-7245/documents
90209,2020-05-15 00:24:40,985,FINISHED_OK,,237,Rodriguez, Esmeralda,./data-out/89883/client-import-files/filevine-7245/documents
90210,2020-05-15 00:24:40,955,FINISHED_OK,,138,Rodriguez, Nikki,./data-out/89883/client-import-files/filevine-7245/documents
90211,2020-05-15 00:24:41,789,FINISHED_OK,,53,Rodriguez, Wyatt,./data-out/89883/client-import-files/filevine-7245/documents
90208,2020-05-15 00:24:40,1244,FINISHED_OK,,384,Robertson, Noah,./data-out/89883/client-import-files/filevine-7245/documents
90214,2020-05-15 00:24:41,638,FINISHED_OK,,20,Rue, Colton,./data-out/89883/client-import-files/filevine-7245/documents
90212,2020-05-15 00:24:41,851,FINISHED_OK,,91,Rosales, Nathan,./data-out/89883/client-import-files/filevine-7245/documents
90213,2020-05-15 00:24:41,1004,FINISHED_OK,,197,Rounsaville, Ernest,./data-out/89883/client-import-files/filevine-7245/documents
90215,2020-05-15 00:24:42,1096,FINISHED_OK,,222,Rue, Roman,./data-out/89883/client-import-files/filevine-7245/documents
90216,2020-05-15 00:24:42,792,FINISHED_OK,,85,Runningbird, John Wesley,./data-out/89883/client-import-files/filevine-7245/documents
90218,2020-05-15 00:24:42,736,FINISHED_OK,,98,SKILLIN-BRAUCHLE, CAYLA (KRH W. GREGG),./data-out/89883/client-import-files/filevine-7245/documents
90219,2020-05-15 00:24:43,661,FINISHED_OK,,33,Saechao, Desere,./data-out/89883/client-import-files/filevine-7245/documents
90220,2020-05-15 00:24:43,829,FINISHED_OK,,112,Sanchez, Marla,./data-out/89883/client-import-files/filevine-7245/documents
90223,2020-05-15 00:24:44,902,FINISHED_OK,,133,Savery, Sean,./data-out/89883/client-import-files/filevine-7245/documents
90221,2020-05-15 00:24:43,1706,FINISHED_OK,,571,Sanders, Alazay,./data-out/89883/client-import-files/filevine-7245/documents
90224,2020-05-15 00:24:45,744,FINISHED_OK,,55,Savidge, Heather,./data-out/89883/client-import-files/filevine-7245/documents
90226,2020-05-15 00:24:45,670,FINISHED_OK,,17,Schlinkert, Heather,./data-out/89883/client-import-files/filevine-7245/documents
90225,2020-05-15 00:24:45,1784,FINISHED_OK,,670,Schaecher, Donald,./data-out/89883/client-import-files/filevine-7245/documents
90227,2020-05-15 00:24:46,711,FINISHED_OK,,49,Schmidt, Ron,./data-out/89883/client-import-files/filevine-7245/documents
90228,2020-05-15 00:24:47,859,FINISHED_OK,,127,Schmitz, Trinity,./data-out/89883/client-import-files/filevine-7245/documents
90229,2020-05-15 00:24:47,941,FINISHED_OK,,126,Schrunk, Cassandra & Shockey, Caige,./data-out/89883/client-import-files/filevine-7245/documents
90231,2020-05-15 00:24:48,599,FINISHED_OK,,38,Sexton, Miranda,./data-out/89883/client-import-files/filevine-7245/documents
90232,2020-05-15 00:24:48,773,FINISHED_OK,,97,Shadoan, Dakota,./data-out/89883/client-import-files/filevine-7245/documents
90230,2020-05-15 00:24:48,2045,FINISHED_OK,,784,Seefeldt, Laura,./data-out/89883/client-import-files/filevine-7245/documents
90233,2020-05-15 00:24:49,908,FINISHED_OK,,158,Shaver, Kevin,./data-out/89883/client-import-files/filevine-7245/documents
90235,2020-05-15 00:24:50,632,FINISHED_OK,,38,Shelton, James,./data-out/89883/client-import-files/filevine-7245/documents
90234,2020-05-15 00:24:50,1489,FINISHED_OK,,250,Shear, Greg,./data-out/89883/client-import-files/filevine-7245/documents
90236,2020-05-15 00:24:51,885,FINISHED_OK,,128,Shepard, Roxann,./data-out/89883/client-import-files/filevine-7245/documents
90237,2020-05-15 00:24:51,589,FINISHED_OK,,2,Shewaye, Svetlana (10.2.18 MVA),./data-out/89883/client-import-files/filevine-7245/documents
90238,2020-05-15 00:24:52,726,FINISHED_OK,,39,Shewell, Timothy (2),./data-out/89883/client-import-files/filevine-7245/documents
90239,2020-05-15 00:24:52,757,FINISHED_OK,,69,Shirley, Cynthia,./data-out/89883/client-import-files/filevine-7245/documents
90240,2020-05-15 00:24:52,827,FINISHED_OK,,63,Shockey, Caige (4.13.19),./data-out/89883/client-import-files/filevine-7245/documents
90241,2020-05-15 00:24:52,1206,FINISHED_OK,,458,Shpiruk, Valeriy,./data-out/89883/client-import-files/filevine-7245/documents
90222,2020-05-15 00:24:43,10853,FINISHED_OK,,4374,Sansome, Mei, Shino and Lyla,./data-out/89883/client-import-files/filevine-7245/documents
90243,2020-05-15 00:24:54,587,FINISHED_OK,,15,Siress, Patricia,./data-out/89883/client-import-files/filevine-7245/documents
90245,2020-05-15 00:24:54,619,FINISHED_OK,,18,Slaughter, Abel,./data-out/89883/client-import-files/filevine-7245/documents
90244,2020-05-15 00:24:54,769,FINISHED_OK,,54,Sisk, William,./data-out/89883/client-import-files/filevine-7245/documents
90246,2020-05-15 00:24:55,667,FINISHED_OK,,18,Slaughter, Amya,./data-out/89883/client-import-files/filevine-7245/documents
90247,2020-05-15 00:24:55,650,FINISHED_OK,,19,Slaughter, Ethaniel (spain),./data-out/89883/client-import-files/filevine-7245/documents
90242,2020-05-15 00:24:53,2717,FINISHED_OK,,1296,Simpson, Richard (2),./data-out/89883/client-import-files/filevine-7245/documents
90248,2020-05-15 00:24:56,726,FINISHED_OK,,46,Slaughter, Luke,./data-out/89883/client-import-files/filevine-7245/documents
90249,2020-05-15 00:24:56,678,FINISHED_OK,,37,Slaughter, Shari,./data-out/89883/client-import-files/filevine-7245/documents
90250,2020-05-15 00:24:56,632,FINISHED_OK,,16,Slobodyan, Marina (1.1.2020),./data-out/89883/client-import-files/filevine-7245/documents
90251,2020-05-15 00:24:56,681,FINISHED_OK,,8,Smith, Kathy,./data-out/89883/client-import-files/filevine-7245/documents
90252,2020-05-15 00:24:56,787,FINISHED_OK,,108,Smith, Naomi (2),./data-out/89883/client-import-files/filevine-7245/documents
90253,2020-05-15 00:24:57,792,FINISHED_OK,,88,Smith, Scott Michael,./data-out/89883/client-import-files/filevine-7245/documents
90254,2020-05-15 00:24:57,1074,FINISHED_OK,,272,Smith.Jeremy (5.31.17 MVA),./data-out/89883/client-import-files/filevine-7245/documents
90255,2020-05-15 00:24:57,982,FINISHED_OK,,177,Smithwick, Gabrielle Estate,./data-out/89883/client-import-files/filevine-7245/documents
90256,2020-05-15 00:24:57,754,FINISHED_OK,,55,Snyder, Ivy,./data-out/89883/client-import-files/filevine-7245/documents
90257,2020-05-15 00:24:58,748,FINISHED_OK,,62,Snyder, Jordan (2),./data-out/89883/client-import-files/filevine-7245/documents
90259,2020-05-15 00:24:58,763,FINISHED_OK,,83,Sokoloff, Carly,./data-out/89883/client-import-files/filevine-7245/documents
90258,2020-05-15 00:24:58,863,FINISHED_OK,,140,Snyder, Scott,./data-out/89883/client-import-files/filevine-7245/documents
90260,2020-05-15 00:24:59,834,FINISHED_OK,,62,Sosa-Lopez, Jose (1.2.2020),./data-out/89883/client-import-files/filevine-7245/documents
90261,2020-05-15 00:24:59,761,FINISHED_OK,,88,Sotelo Neri, Brigido,./data-out/89883/client-import-files/filevine-7245/documents
90262,2020-05-15 00:24:59,1089,FINISHED_OK,,256,Soto-Fajardo, Ma Ines,./data-out/89883/client-import-files/filevine-7245/documents
90263,2020-05-15 00:25:00,664,FINISHED_OK,,22,Spence, Terrence,./data-out/89883/client-import-files/filevine-7245/documents
90266,2020-05-15 00:25:00,764,FINISHED_OK,,61,Spry, Christina,./data-out/89883/client-import-files/filevine-7245/documents
90265,2020-05-15 00:25:00,1143,FINISHED_OK,,286,Sproul,Doug,./data-out/89883/client-import-files/filevine-7245/documents
90267,2020-05-15 00:25:01,746,FINISHED_OK,,41,Starboard, Cheyanna,./data-out/89883/client-import-files/filevine-7245/documents
90268,2020-05-15 00:25:01,1154,FINISHED_OK,,307,Starboard, Jamie,./data-out/89883/client-import-files/filevine-7245/documents
90269,2020-05-15 00:25:02,727,FINISHED_OK,,32,Starboard, Samuel,./data-out/89883/client-import-files/filevine-7245/documents
90270,2020-05-15 00:25:02,711,FINISHED_OK,,34,Starr, Hannah,./data-out/89883/client-import-files/filevine-7245/documents
90271,2020-05-15 00:25:03,781,FINISHED_OK,,62,Stefanowicz, Nikki,./data-out/89883/client-import-files/filevine-7245/documents
90272,2020-05-15 00:25:03,778,FINISHED_OK,,47,Stevens, Shannon,./data-out/89883/client-import-files/filevine-7245/documents
90264,2020-05-15 00:25:00,4598,FINISHED_OK,,2559,Spencer, Sebastian (Estate),./data-out/89883/client-import-files/filevine-7245/documents
90273,2020-05-15 00:25:03,1026,FINISHED_OK,,244,Stinnett, Alexis,./data-out/89883/client-import-files/filevine-7245/documents
90274,2020-05-15 00:25:04,761,FINISHED_OK,,85,Sturgeon, Tracy,./data-out/89883/client-import-files/filevine-7245/documents
90275,2020-05-15 00:25:04,926,FINISHED_OK,,159,Sturm, Virginia (Gini),./data-out/89883/client-import-files/filevine-7245/documents
90276,2020-05-15 00:25:04,864,FINISHED_OK,,46,Sullivan, Jimmy,./data-out/89883/client-import-files/filevine-7245/documents
90277,2020-05-15 00:25:05,1205,FINISHED_OK,,315,Sullivan, Sydney,./data-out/89883/client-import-files/filevine-7245/documents
90217,2020-05-15 00:24:42,23717,FINISHED_OK,,18563,Rysavy, Jarrell,./data-out/89883/client-import-files/filevine-7245/documents
90278,2020-05-15 00:25:05,738,FINISHED_OK,,52,Sullivan, Vicki,./data-out/89883/client-import-files/filevine-7245/documents
90279,2020-05-15 00:25:05,1116,FINISHED_OK,,183,Sura, Bethany and Ethan,./data-out/89883/client-import-files/filevine-7245/documents
90280,2020-05-15 00:25:06,782,FINISHED_OK,,45,TOVAR, Alejandro (w. D. Jiminez  #2 krh),./data-out/89883/client-import-files/filevine-7245/documents
90282,2020-05-15 00:25:06,764,FINISHED_OK,,71,Tanksley, Erica,./data-out/89883/client-import-files/filevine-7245/documents
90281,2020-05-15 00:25:06,1160,FINISHED_OK,,237,Talamantes, Carolina,./data-out/89883/client-import-files/filevine-7245/documents
90283,2020-05-15 00:25:06,1244,FINISHED_OK,,374,Taylor, Dylan the Estate,./data-out/89883/client-import-files/filevine-7245/documents
90284,2020-05-15 00:25:07,1128,FINISHED_OK,,306,Teahn, Lilly,./data-out/89883/client-import-files/filevine-7245/documents
90286,2020-05-15 00:25:07,1044,FINISHED_OK,,236,Teahn, Samantha,./data-out/89883/client-import-files/filevine-7245/documents
90287,2020-05-15 00:25:08,764,FINISHED_OK,,53,Terrones, Edgar,./data-out/89883/client-import-files/filevine-7245/documents
90288,2020-05-15 00:25:08,942,FINISHED_OK,,150,Thomas, Destinee,./data-out/89883/client-import-files/filevine-7245/documents
90289,2020-05-15 00:25:08,650,FINISHED_OK,,8,Thomas, Mike,./data-out/89883/client-import-files/filevine-7245/documents
90285,2020-05-15 00:25:07,2275,FINISHED_OK,,1191,Teahn, Munty,./data-out/89883/client-import-files/filevine-7245/documents
90290,2020-05-15 00:25:08,769,FINISHED_OK,,85,Thompson, Mitch,./data-out/89883/client-import-files/filevine-7245/documents
90291,2020-05-15 00:25:09,789,FINISHED_OK,,74,Tisler, Melanie 2,./data-out/89883/client-import-files/filevine-7245/documents
90292,2020-05-15 00:25:09,931,FINISHED_OK,,186,Todd, David,./data-out/89883/client-import-files/filevine-7245/documents
90293,2020-05-15 00:25:09,743,FINISHED_OK,,54,Tolentino, Kenya,./data-out/89883/client-import-files/filevine-7245/documents
90296,2020-05-15 00:25:10,659,FINISHED_OK,,34,Trejo, Diana,./data-out/89883/client-import-files/filevine-7245/documents
90297,2020-05-15 00:25:10,773,FINISHED_OK,,63,Tucker, Isacc,./data-out/89883/client-import-files/filevine-7245/documents
90298,2020-05-15 00:25:10,627,FINISHED_OK,,36,Turner, Christian,./data-out/89883/client-import-files/filevine-7245/documents
90299,2020-05-15 00:25:11,641,FINISHED_OK,,1,Tweed, Gayle,./data-out/89883/client-import-files/filevine-7245/documents
90294,2020-05-15 00:25:09,2022,FINISHED_OK,,787,Torstrom, Carol (Estate),./data-out/89883/client-import-files/filevine-7245/documents
90300,2020-05-15 00:25:11,757,FINISHED_OK,,94,Tweed, Jenn,./data-out/89883/client-import-files/filevine-7245/documents
90301,2020-05-15 00:25:11,750,FINISHED_OK,,55,Tweed, Michael,./data-out/89883/client-import-files/filevine-7245/documents
90302,2020-05-15 00:25:11,725,FINISHED_OK,,73,Ulmer, Dawn (5.9.19 MVA),./data-out/89883/client-import-files/filevine-7245/documents
90303,2020-05-15 00:25:12,882,FINISHED_OK,,123,Ulmer, Dawn and Alyson,./data-out/89883/client-import-files/filevine-7245/documents
90305,2020-05-15 00:25:12,682,FINISHED_OK,,17,Vallejo, Marcos (2),./data-out/89883/client-import-files/filevine-7245/documents
90295,2020-05-15 00:25:10,3891,FINISHED_OK,,1884,Tracy, Deborah,./data-out/89883/client-import-files/filevine-7245/documents
90307,2020-05-15 00:25:13,890,FINISHED_OK,,148,Van Liew, Susan and Gainer, Carrie,./data-out/89883/client-import-files/filevine-7245/documents
90308,2020-05-15 00:25:13,755,FINISHED_OK,,49,Vance, Kenneth,./data-out/89883/client-import-files/filevine-7245/documents
90309,2020-05-15 00:25:14,735,FINISHED_OK,,52,Vandehey, Cindy,./data-out/89883/client-import-files/filevine-7245/documents
90310,2020-05-15 00:25:14,691,FINISHED_OK,,39,Vanderbeck, Peytan,./data-out/89883/client-import-files/filevine-7245/documents
90306,2020-05-15 00:25:13,2237,FINISHED_OK,,1111,Vallejo, Marcos,./data-out/89883/client-import-files/filevine-7245/documents
90304,2020-05-15 00:25:12,3040,FINISHED_OK,,1399,Valihov, Steve,./data-out/89883/client-import-files/filevine-7245/documents
90311,2020-05-15 00:25:14,942,FINISHED_OK,,133,Vantienen, Jessica,./data-out/89883/client-import-files/filevine-7245/documents
90313,2020-05-15 00:25:15,929,FINISHED_OK,,17,Villwock, Jered,./data-out/89883/client-import-files/filevine-7245/documents
90314,2020-05-15 00:25:15,863,FINISHED_OK,,75,VonFlue, Darren and Tara,./data-out/89883/client-import-files/filevine-7245/documents
90316,2020-05-15 00:25:16,868,FINISHED_OK,,126,Waits, Brook,./data-out/89883/client-import-files/filevine-7245/documents
90317,2020-05-15 00:25:16,964,FINISHED_OK,,50,Walker, Dennis,./data-out/89883/client-import-files/filevine-7245/documents
90319,2020-05-15 00:25:17,909,FINISHED_OK,,102,Wallbaum, Elijah,./data-out/89883/client-import-files/filevine-7245/documents
90318,2020-05-15 00:25:17,1215,FINISHED_OK,,297,Walker, Michael,./data-out/89883/client-import-files/filevine-7245/documents
90320,2020-05-15 00:25:18,799,FINISHED_OK,,113,Wallbaum, Jocelyn,./data-out/89883/client-import-files/filevine-7245/documents
90321,2020-05-15 00:25:18,647,FINISHED_OK,,31,Wallbaum, Noah,./data-out/89883/client-import-files/filevine-7245/documents
90322,2020-05-15 00:25:19,639,FINISHED_OK,,29,Wallbaum, Savannah,./data-out/89883/client-import-files/filevine-7245/documents
90323,2020-05-15 00:25:19,1255,FINISHED_OK,,255,Wallbaum, Selah,./data-out/89883/client-import-files/filevine-7245/documents
90324,2020-05-15 00:25:19,742,FINISHED_OK,,34,Walter, Rasten (Kaitlyn),./data-out/89883/client-import-files/filevine-7245/documents
90325,2020-05-15 00:25:20,788,FINISHED_OK,,105,Walters, Jacob,./data-out/89883/client-import-files/filevine-7245/documents
90326,2020-05-15 00:25:20,1399,FINISHED_OK,,510,Wardell, Douglas,./data-out/89883/client-import-files/filevine-7245/documents
90327,2020-05-15 00:25:21,843,FINISHED_OK,,63,Warren, Cara (2),./data-out/89883/client-import-files/filevine-7245/documents
90328,2020-05-15 00:25:21,647,FINISHED_OK,,36,Weathers, Janet,./data-out/89883/client-import-files/filevine-7245/documents
90329,2020-05-15 00:25:22,780,FINISHED_OK,,111,Webb, Linda,./data-out/89883/client-import-files/filevine-7245/documents
90331,2020-05-15 00:25:22,1001,FINISHED_OK,,88,Wernsman, Karlee,./data-out/89883/client-import-files/filevine-7245/documents
90332,2020-05-15 00:25:23,664,FINISHED_OK,,11,Westfall, Margarita,./data-out/89883/client-import-files/filevine-7245/documents
90330,2020-05-15 00:25:22,2694,FINISHED_OK,,1971,Wenrich, Brenda,./data-out/89883/client-import-files/filevine-7245/documents
90333,2020-05-15 00:25:24,935,FINISHED_OK,,127,Whitchurch, Pamela,./data-out/89883/client-import-files/filevine-7245/documents
90315,2020-05-15 00:25:15,9910,FINISHED_OK,,8437,Waiau, Simon,./data-out/89883/client-import-files/filevine-7245/documents
90335,2020-05-15 00:25:25,876,FINISHED_OK,,152,White, Elizabeth,./data-out/89883/client-import-files/filevine-7245/documents
90334,2020-05-15 00:25:25,1127,FINISHED_OK,,194,White, Dee Ann 03.30.19,./data-out/89883/client-import-files/filevine-7245/documents
90336,2020-05-15 00:25:25,815,FINISHED_OK,,90,Willard, Shelly,./data-out/89883/client-import-files/filevine-7245/documents
90337,2020-05-15 00:25:26,664,FINISHED_OK,,24,Williams, Cyrus,./data-out/89883/client-import-files/filevine-7245/documents
90338,2020-05-15 00:25:26,725,FINISHED_OK,,47,Williamson, Roy Dale,./data-out/89883/client-import-files/filevine-7245/documents
90339,2020-05-15 00:25:26,789,FINISHED_OK,,67,Wilson, Doug,./data-out/89883/client-import-files/filevine-7245/documents
90342,2020-05-15 00:25:27,607,FINISHED_OK,,9,Wolf, Melissa,./data-out/89883/client-import-files/filevine-7245/documents
90340,2020-05-15 00:25:27,1034,FINISHED_OK,,247,Wilson, Virginia,./data-out/89883/client-import-files/filevine-7245/documents
90341,2020-05-15 00:25:27,1058,FINISHED_OK,,215,Wintersteen, Camryn  (KRH - King),./data-out/89883/client-import-files/filevine-7245/documents
90343,2020-05-15 00:25:28,640,FINISHED_OK,,34,Wood, Sharon (9.8.19 MVA),./data-out/89883/client-import-files/filevine-7245/documents
90344,2020-05-15 00:25:28,743,FINISHED_OK,,58,Wright, Terrill,./data-out/89883/client-import-files/filevine-7245/documents
90345,2020-05-15 00:25:28,714,FINISHED_OK,,47,Xiong, Joleen,./data-out/89883/client-import-files/filevine-7245/documents
90346,2020-05-15 00:25:28,761,FINISHED_OK,,78,Yarbrough, Francesca & Goff, Payton,./data-out/89883/client-import-files/filevine-7245/documents
90347,2020-05-15 00:25:28,609,FINISHED_OK,,17,Yarbrough, William,./data-out/89883/client-import-files/filevine-7245/documents
90348,2020-05-15 00:25:28,786,FINISHED_OK,,88,Yoder, Laura,./data-out/89883/client-import-files/filevine-7245/documents
90349,2020-05-15 00:25:29,783,FINISHED_OK,,76,Yoder, Sean,./data-out/89883/client-import-files/filevine-7245/documents
90351,2020-05-15 00:25:29,1487,FINISHED_OK,,575,Zavala, Abel,./data-out/89883/client-import-files/filevine-7245/documents
90352,2020-05-15 00:25:30,1299,FINISHED_OK,,249,Zavala, Carmen,./data-out/89883/client-import-files/filevine-7245/documents
90350,2020-05-15 00:25:29,2314,FINISHED_OK,,1058,Yurchenko, Alina,./data-out/89883/client-import-files/filevine-7245/documents
90353,2020-05-15 00:25:31,814,FINISHED_OK,,106,Zechello, Michelle,./data-out/89883/client-import-files/filevine-7245/documents
90355,2020-05-15 00:25:31,403,FINISHED_OK,,1,.DS_Store,./data-out/89883/client-import-files/filevine-7245/documents
90357,2020-05-15 00:25:32,184,FINISHED_OK,,1,~$ Letter mail retainer. Saundra Reeve.docx,./data-out/89883/client-import-files/filevine-7245/documents
90356,2020-05-15 00:25:32,430,FINISHED_OK,,1,Thumbs.db,./data-out/89883/client-import-files/filevine-7245/documents
90358,2020-05-15 00:25:32,180,FINISHED_OK,,1,~$ demand list.docx,./data-out/89883/client-import-files/filevine-7245/documents
90359,2020-05-15 00:25:32,189,FINISHED_OK,,1,~$L Retainer 2020.docx,./data-out/89883/client-import-files/filevine-7245/documents
90360,2020-05-15 00:25:32,193,FINISHED_OK,,1,~$sterletter head 1.2.19.docx,./data-out/89883/client-import-files/filevine-7245/documents
90354,2020-05-15 00:25:31,1519,FINISHED_OK,,444,porter, Arthur,./data-out/89883/client-import-files/filevine-7245/documents
90312,2020-05-15 00:25:15,25588,FINISHED_OK,,23749,Villwock, Beau,./data-out/89883/client-import-files/filevine-7245/documents
