runId,startTime,duration,status,errMessage,totalFilesScanned,bucket,scan_file_name
174189,2020-06-24 20:57:43,2411,FINISHED_OK,,1568,A,./data-out/174187/client-import-files/filevine-7160/docs
174192,2020-06-24 20:57:44,3107,FINISHED_OK,,2487,D,./data-out/174187/client-import-files/filevine-7160/docs
174190,2020-06-24 20:57:43,4173,FINISHED_OK,,3824,B,./data-out/174187/client-import-files/filevine-7160/docs
174193,2020-06-24 20:57:46,2007,FINISHED_OK,,1114,E,./data-out/174187/client-import-files/filevine-7160/docs
174191,2020-06-24 20:57:44,4402,FINISHED_OK,,4321,C,./data-out/174187/client-import-files/filevine-7160/docs
174194,2020-06-24 20:57:47,2236,FINISHED_OK,,1485,F,./data-out/174187/client-import-files/filevine-7160/docs
174197,2020-06-24 20:57:48,1545,FINISHED_OK,,578,I,./data-out/174187/client-import-files/filevine-7160/docs
174196,2020-06-24 20:57:48,2793,FINISHED_OK,,2102,H,./data-out/174187/client-import-files/filevine-7160/docs
174198,2020-06-24 20:57:49,2040,FINISHED_OK,,1025,J,./data-out/174187/client-import-files/filevine-7160/docs
174195,2020-06-24 20:57:48,3541,FINISHED_OK,,2976,G,./data-out/174187/client-import-files/filevine-7160/docs
174199,2020-06-24 20:57:50,2212,FINISHED_OK,,1229,K,./data-out/174187/client-import-files/filevine-7160/docs
174202,2020-06-24 20:57:51,1335,FINISHED_OK,,462,N,./data-out/174187/client-import-files/filevine-7160/docs
174200,2020-06-24 20:57:51,2217,FINISHED_OK,,1283,L,./data-out/174187/client-import-files/filevine-7160/docs
174203,2020-06-24 20:57:52,1388,FINISHED_OK,,457,O,./data-out/174187/client-import-files/filevine-7160/docs
174205,2020-06-24 20:57:53,708,FINISHED_OK,,31,Q,./data-out/174187/client-import-files/filevine-7160/docs
174204,2020-06-24 20:57:53,2942,FINISHED_OK,,2293,P,./data-out/174187/client-import-files/filevine-7160/docs
174201,2020-06-24 20:57:51,4754,FINISHED_OK,,4485,M,./data-out/174187/client-import-files/filevine-7160/docs
174209,2020-06-24 20:57:56,787,FINISHED_OK,,37,U,./data-out/174187/client-import-files/filevine-7160/docs
174206,2020-06-24 20:57:53,3826,FINISHED_OK,,2783,R,./data-out/174187/client-import-files/filevine-7160/docs
174208,2020-06-24 20:57:56,2050,FINISHED_OK,,1108,T,./data-out/174187/client-import-files/filevine-7160/docs
174207,2020-06-24 20:57:54,4247,FINISHED_OK,,3956,S,./data-out/174187/client-import-files/filevine-7160/docs
174212,2020-06-24 20:57:58,761,FINISHED_OK,,45,Y,./data-out/174187/client-import-files/filevine-7160/docs
174210,2020-06-24 20:57:57,1932,FINISHED_OK,,965,V,./data-out/174187/client-import-files/filevine-7160/docs
174213,2020-06-24 20:57:58,1492,FINISHED_OK,,429,Z,./data-out/174187/client-import-files/filevine-7160/docs
174211,2020-06-24 20:57:57,3227,FINISHED_OK,,2429,W,./data-out/174187/client-import-files/filevine-7160/docs
174214,2020-06-24 20:57:58,102926,FINISHED_OK,,111355,pi,./data-out/174187/client-import-files/filevine-7160/docs
