runId,startTime,duration,status,errMessage,totalFilesScanned,bucket,scan_file_name
-37273,2020-05-14 17:56:20,1226,FINISHED_OK,,325,Abbott v DWP,./data-out/-37270/client-import-files/filevine-5318/docs_r
-37272,2020-05-14 17:56:20,1309,FINISHED_OK,,311,AARP,./data-out/-37270/client-import-files/filevine-5318/docs_r
-37276,2020-05-14 17:56:21,1093,FINISHED_OK,,170,Avalos, Christina,./data-out/-37270/client-import-files/filevine-5318/docs_r
-37274,2020-05-14 17:56:20,17483,FINISHED_OK,,11682,Abrams v State,./data-out/-37270/client-import-files/filevine-5318/docs_r
-37279,2020-05-14 17:56:37,1058,FINISHED_OK,,155,Castaneda v. Singh,./data-out/-37270/client-import-files/filevine-5318/docs_r
-37280,2020-05-14 17:56:38,712,FINISHED_OK,,10,Castaneda v. Trioliet,./data-out/-37270/client-import-files/filevine-5318/docs_r
-37278,2020-05-14 17:56:22,25832,FINISHED_OK,,24884,Casemap,./data-out/-37270/client-import-files/filevine-5318/docs_r
-37277,2020-05-14 17:56:21,31444,FINISHED_OK,,23073,Camacho,./data-out/-37270/client-import-files/filevine-5318/docs_r
-37283,2020-05-14 17:56:52,1514,FINISHED_OK,,584,Clark v. Monsanto,./data-out/-37270/client-import-files/filevine-5318/docs_r
-37282,2020-05-14 17:56:48,7539,FINISHED_OK,,5872,Ceja v. Bridgestone,./data-out/-37270/client-import-files/filevine-5318/docs_r
-37275,2020-05-14 17:56:20,55321,FINISHED_OK,,38004,Alcazar v. LAUSD,./data-out/-37270/client-import-files/filevine-5318/docs_r
-37286,2020-05-14 17:57:15,1507,FINISHED_OK,,382,De La Paz,./data-out/-37270/client-import-files/filevine-5318/docs_r
-37285,2020-05-14 17:56:55,22491,FINISHED_OK,,14850,Craddock v. New Leaf,./data-out/-37270/client-import-files/filevine-5318/docs_r
-37287,2020-05-14 17:57:17,1932,FINISHED_OK,,922,Dounel,./data-out/-37270/client-import-files/filevine-5318/docs_r
-37288,2020-05-14 17:57:18,1743,FINISHED_OK,,756,Espejo,./data-out/-37270/client-import-files/filevine-5318/docs_r
-37289,2020-05-14 17:57:18,1800,FINISHED_OK,,688,Essex v. FD Event,./data-out/-37270/client-import-files/filevine-5318/docs_r
-37290,2020-05-14 17:57:20,14065,FINISHED_OK,,9923,Fowler v. Zuniga,./data-out/-37270/client-import-files/filevine-5318/docs_r
-37292,2020-05-14 17:57:34,833,FINISHED_OK,,104,Ginzburg,./data-out/-37270/client-import-files/filevine-5318/docs_r
-37284,2020-05-14 17:56:54,70956,FINISHED_OK,,46200,Courtney v. Daimler,./data-out/-37270/client-import-files/filevine-5318/docs_r
-37294,2020-05-14 17:58:05,6294,FINISHED_OK,,5023,Gordon v. SB Fair,./data-out/-37270/client-import-files/filevine-5318/docs_r
-37295,2020-05-14 17:58:11,20360,FINISHED_OK,,21191,Grant,./data-out/-37270/client-import-files/filevine-5318/docs_r
-37298,2020-05-14 17:58:32,2568,FINISHED_OK,,1559,Gretencord,./data-out/-37270/client-import-files/filevine-5318/docs_r
-37299,2020-05-14 17:58:34,29221,FINISHED_OK,,20156,Guckian v. Akon,./data-out/-37270/client-import-files/filevine-5318/docs_r
-37300,2020-05-14 17:59:03,634,FINISHED_OK,,1,Guillermo Pinto Vasquez,./data-out/-37270/client-import-files/filevine-5318/docs_r
-37301,2020-05-14 17:59:04,1047,FINISHED_OK,,167,Haskell v. Security Paving,./data-out/-37270/client-import-files/filevine-5318/docs_r
-37302,2020-05-14 17:59:05,3226,FINISHED_OK,,1830,Hernandez v. De La Garza,./data-out/-37270/client-import-files/filevine-5318/docs_r
-37281,2020-05-14 17:56:39,157776,FINISHED_OK,,92473,Ceballos v. Standard Pacific,./data-out/-37270/client-import-files/filevine-5318/docs_r
-37303,2020-05-14 17:59:08,25388,FINISHED_OK,,26136,Homampour Law Firm,./data-out/-37270/client-import-files/filevine-5318/docs_r
-37305,2020-05-14 17:59:34,2901,FINISHED_OK,,2022,Kuzminskaia,./data-out/-37270/client-import-files/filevine-5318/docs_r
-37306,2020-05-14 17:59:37,619,FINISHED_OK,,17,Lamas,./data-out/-37270/client-import-files/filevine-5318/docs_r
-37307,2020-05-14 17:59:37,4530,FINISHED_OK,,2699,Licea,./data-out/-37270/client-import-files/filevine-5318/docs_r
-37308,2020-05-14 17:59:42,12377,FINISHED_OK,,10420,Lloyd,./data-out/-37270/client-import-files/filevine-5318/docs_r
-37309,2020-05-14 17:59:54,853,FINISHED_OK,,106,Malobabich,./data-out/-37270/client-import-files/filevine-5318/docs_r
-37293,2020-05-14 17:57:35,141139,FINISHED_OK,,116282,Gonzalez v. Edison,./data-out/-37270/client-import-files/filevine-5318/docs_r
-37311,2020-05-14 17:59:56,1299,FINISHED_OK,,483,Mendoza v. CUSD,./data-out/-37270/client-import-files/filevine-5318/docs_r
-37310,2020-05-14 17:59:55,2834,FINISHED_OK,,1673,Mendoza v. Berkshire Hathaway,./data-out/-37270/client-import-files/filevine-5318/docs_r
-37312,2020-05-14 17:59:57,6950,FINISHED_OK,,5869,Mis v. Don Diego,./data-out/-37270/client-import-files/filevine-5318/docs_r
-37313,2020-05-14 17:59:58,7904,FINISHED_OK,,4872,Nadimyan,./data-out/-37270/client-import-files/filevine-5318/docs_r
-37314,2020-05-14 18:00:04,3832,FINISHED_OK,,2264,Nelson v. Sovereign,./data-out/-37270/client-import-files/filevine-5318/docs_r
-37315,2020-05-14 18:00:06,11513,FINISHED_OK,,8089,O'Malley v. Diamond,./data-out/-37270/client-import-files/filevine-5318/docs_r
-37291,2020-05-14 17:57:20,178133,FINISHED_OK,,138051,Garay,./data-out/-37270/client-import-files/filevine-5318/docs_r
-37316,2020-05-14 18:00:08,26759,FINISHED_OK,,18000,Oliveros v. City of Fullerton,./data-out/-37270/client-import-files/filevine-5318/docs_r
-37319,2020-05-14 18:00:35,1274,FINISHED_OK,,386,Protocols,./data-out/-37270/client-import-files/filevine-5318/docs_r
-37304,2020-05-14 17:59:17,84741,FINISHED_OK,,59164,Keller v. State of CA,./data-out/-37270/client-import-files/filevine-5318/docs_r
-37321,2020-05-14 18:00:41,587,FINISHED_OK,,2,Rodriguez v. Serranosantillan,./data-out/-37270/client-import-files/filevine-5318/docs_r
-37318,2020-05-14 18:00:18,23645,FINISHED_OK,,20704,Plascencia v. Newcomb,./data-out/-37270/client-import-files/filevine-5318/docs_r
-37317,2020-05-14 18:00:17,26440,FINISHED_OK,,17443,Overton v. Toyota,./data-out/-37270/client-import-files/filevine-5318/docs_r
-37320,2020-05-14 18:00:36,9306,FINISHED_OK,,5654,Rifkin v. City of WeHo,./data-out/-37270/client-import-files/filevine-5318/docs_r
-37325,2020-05-14 18:00:45,734,FINISHED_OK,,95,Santiago v. State of CA,./data-out/-37270/client-import-files/filevine-5318/docs_r
-37326,2020-05-14 18:00:46,699,FINISHED_OK,,3,Settlements,./data-out/-37270/client-import-files/filevine-5318/docs_r
-37327,2020-05-14 18:00:47,3429,FINISHED_OK,,2256,Shahverdi,./data-out/-37270/client-import-files/filevine-5318/docs_r
-37322,2020-05-14 18:00:42,51649,FINISHED_OK,,35559,Rodriguez v. Toyota,./data-out/-37270/client-import-files/filevine-5318/docs_r
-37329,2020-05-14 18:01:34,123229,FINISHED_OK,,78208,Spicer v. Doe,./data-out/-37270/client-import-files/filevine-5318/docs_r
-37330,2020-05-14 18:03:37,2894,FINISHED_OK,,1573,Stipanovich,./data-out/-37270/client-import-files/filevine-5318/docs_r
-37331,2020-05-14 18:03:40,14491,FINISHED_OK,,7710,Stovall v. USA Waste of California, Inc,./data-out/-37270/client-import-files/filevine-5318/docs_r
-37332,2020-05-14 18:03:54,1064,FINISHED_OK,,82,TBI,./data-out/-37270/client-import-files/filevine-5318/docs_r
-37328,2020-05-14 18:00:50,189748,FINISHED_OK,,156323,Smith v. Toyota,./data-out/-37270/client-import-files/filevine-5318/docs_r
-37334,2020-05-14 18:04:00,658,FINISHED_OK,,18,UBER and LYFT,./data-out/-37270/client-import-files/filevine-5318/docs_r
-37335,2020-05-14 18:04:00,2738,FINISHED_OK,,1623,Veklotz,./data-out/-37270/client-import-files/filevine-5318/docs_r
-37324,2020-05-14 18:00:44,204889,FINISHED_OK,,162993,Salinas v. Ortiz,./data-out/-37270/client-import-files/filevine-5318/docs_r
-37336,2020-05-14 18:04:03,17649,FINISHED_OK,,13050,Villa, Lorna,./data-out/-37270/client-import-files/filevine-5318/docs_r
-37338,2020-05-14 18:04:21,3100,FINISHED_OK,,1804,Washington v. Beltran,./data-out/-37270/client-import-files/filevine-5318/docs_r
-37339,2020-05-14 18:04:24,5401,FINISHED_OK,,4116,Zamora,./data-out/-37270/client-import-files/filevine-5318/docs_r
-37340,2020-05-14 18:04:29,2071,FINISHED_OK,,1062,Zendejas,./data-out/-37270/client-import-files/filevine-5318/docs_r
-37337,2020-05-14 18:04:09,38379,FINISHED_OK,,26024,Vinolo,./data-out/-37270/client-import-files/filevine-5318/docs_r
-37342,2020-05-14 18:04:47,9434,FINISHED_OK,,8511,_MISC,./data-out/-37270/client-import-files/filevine-5318/docs_r
-37343,2020-05-14 18:04:56,1644,FINISHED_OK,,700,_gsdata_,./data-out/-37270/client-import-files/filevine-5318/docs_r
-37344,2020-05-14 18:04:58,442,FINISHED_OK,,1,Copy of CA-NT Cases (rev).xlsx,./data-out/-37270/client-import-files/filevine-5318/docs_r
-37345,2020-05-14 18:04:58,171,FINISHED_OK,,1,Jodie-Immell-CV-Ponderosa-Associates-1.pdf,./data-out/-37270/client-import-files/filevine-5318/docs_r
-37346,2020-05-14 18:04:59,164,FINISHED_OK,,1,Thumbs.db,./data-out/-37270/client-import-files/filevine-5318/docs_r
-37347,2020-05-14 18:04:59,165,FINISHED_OK,,1,WW CT.wpd,./data-out/-37270/client-import-files/filevine-5318/docs_r
-37348,2020-05-14 18:04:59,164,FINISHED_OK,,1,mailing4.csv,./data-out/-37270/client-import-files/filevine-5318/docs_r
-37323,2020-05-14 18:00:42,272744,FINISHED_OK,,164522,Ruano v. LAUSD,./data-out/-37270/client-import-files/filevine-5318/docs_r
-37341,2020-05-14 18:04:31,45924,FINISHED_OK,,27676,Zuniga v. Cherry Ave Auction,./data-out/-37270/client-import-files/filevine-5318/docs_r
-37333,2020-05-14 18:03:55,101382,FINISHED_OK,,57224,Torres v. Collaro, et al,./data-out/-37270/client-import-files/filevine-5318/docs_r
