runId,startTime,duration,status,errMessage,totalFilesScanned,bucket,scan_file_name
142452,2020-06-02 18:05:22,904,FINISHED_OK,,5,Aida Blanco (Civil),./data-out/142450/client-import-files/filevine-7087/docs/
142453,2020-06-02 18:05:22,887,FINISHED_OK,,17,Antoinette Mendieta (Civil),./data-out/142450/client-import-files/filevine-7087/docs/
142454,2020-06-02 18:05:22,1676,FINISHED_OK,,357,Carlos Flores (Civil),./data-out/142450/client-import-files/filevine-7087/docs/
142455,2020-06-02 18:05:22,1623,FINISHED_OK,,416,Catherine Walls (Civil),./data-out/142450/client-import-files/filevine-7087/docs/
142457,2020-06-02 18:05:23,958,FINISHED_OK,,40,Christopher Balutis (Civil),./data-out/142450/client-import-files/filevine-7087/docs/
142456,2020-06-02 18:05:23,1206,FINISHED_OK,,160,Charles Mealey (Civil),./data-out/142450/client-import-files/filevine-7087/docs/
142460,2020-06-02 18:05:24,1113,FINISHED_OK,,92,Eduardo DeLa Cruz (Civil),./data-out/142450/client-import-files/filevine-7087/docs/
142461,2020-06-02 18:05:24,1003,FINISHED_OK,,80,Edward Zertuche (Civil),./data-out/142450/client-import-files/filevine-7087/docs/
142458,2020-06-02 18:05:24,1449,FINISHED_OK,,188,Doris Prince (Civil),./data-out/142450/client-import-files/filevine-7087/docs/
142459,2020-06-02 18:05:24,1545,FINISHED_OK,,400,Eddie Duckworth, III (Civil),./data-out/142450/client-import-files/filevine-7087/docs/
142462,2020-06-02 18:05:25,1013,FINISHED_OK,,6,Eli L. Mikiten (Civil),./data-out/142450/client-import-files/filevine-7087/docs/
142463,2020-06-02 18:05:25,1027,FINISHED_OK,,114,Enzo Mori (Civil),./data-out/142450/client-import-files/filevine-7087/docs/
142464,2020-06-02 18:05:25,943,FINISHED_OK,,74,Eric Heslin (Civil),./data-out/142450/client-import-files/filevine-7087/docs/
142465,2020-06-02 18:05:26,1262,FINISHED_OK,,230,Eric Zaragoza (Civil),./data-out/142450/client-import-files/filevine-7087/docs/
142466,2020-06-02 18:05:26,896,FINISHED_OK,,45,Erick Dominguez (Civil),./data-out/142450/client-import-files/filevine-7087/docs/
142467,2020-06-02 18:05:26,898,FINISHED_OK,,2,Erick Dominguez,./data-out/142450/client-import-files/filevine-7087/docs/
142468,2020-06-02 18:05:27,934,FINISHED_OK,,8,Felix Silvestre (Civil),./data-out/142450/client-import-files/filevine-7087/docs/
142469,2020-06-02 18:05:27,1274,FINISHED_OK,,190,Fernando Garcia (Civil),./data-out/142450/client-import-files/filevine-7087/docs/
142472,2020-06-02 18:05:28,1552,FINISHED_OK,,235,Francisco Orozco-Huerta (Civil),./data-out/142450/client-import-files/filevine-7087/docs/
142473,2020-06-02 18:05:28,1314,FINISHED_OK,,208,Frandi Zacarias (Civil),./data-out/142450/client-import-files/filevine-7087/docs/
142474,2020-06-02 18:05:29,986,FINISHED_OK,,14,Gale Maplesden (Civil),./data-out/142450/client-import-files/filevine-7087/docs/
142475,2020-06-02 18:05:30,819,FINISHED_OK,,6,Garrison, Michael vs. Matt Cole, et al,./data-out/142450/client-import-files/filevine-7087/docs/
142476,2020-06-02 18:05:30,931,FINISHED_OK,,40,Gayla Nethercott (Civil),./data-out/142450/client-import-files/filevine-7087/docs/
142477,2020-06-02 18:05:30,856,FINISHED_OK,,30,Gerald Mantalvanos (Civil),./data-out/142450/client-import-files/filevine-7087/docs/
142478,2020-06-02 18:05:31,797,FINISHED_OK,,4,Gordon Reade (Civil),./data-out/142450/client-import-files/filevine-7087/docs/
142479,2020-06-02 18:05:31,860,FINISHED_OK,,26,Griselda Ramirez (Civil),./data-out/142450/client-import-files/filevine-7087/docs/
142470,2020-06-02 18:05:27,4953,FINISHED_OK,,2735,Fernando Gonzalez Suarez (Civil),./data-out/142450/client-import-files/filevine-7087/docs/
142481,2020-06-02 18:05:32,927,FINISHED_OK,,30,Gustavo Lara-Avila (Civil),./data-out/142450/client-import-files/filevine-7087/docs/
142480,2020-06-02 18:05:32,1333,FINISHED_OK,,249,Guadalupe A. Campillo-Cortes (Civil),./data-out/142450/client-import-files/filevine-7087/docs/
142482,2020-06-02 18:05:32,1088,FINISHED_OK,,78,Helen Johnson (Civil),./data-out/142450/client-import-files/filevine-7087/docs/
142471,2020-06-02 18:05:27,5998,FINISHED_OK,,2767,Fernando Gonzalez-Suarez (Civil),./data-out/142450/client-import-files/filevine-7087/docs/
142485,2020-06-02 18:05:33,835,FINISHED_OK,,1,Ixchel Ruvalcaba (Civil),./data-out/142450/client-import-files/filevine-7087/docs/
142484,2020-06-02 18:05:33,971,FINISHED_OK,,56,Irma Davila-Guevara (Civil),./data-out/142450/client-import-files/filevine-7087/docs/
142483,2020-06-02 18:05:33,1187,FINISHED_OK,,144,Hope Williams (Civil),./data-out/142450/client-import-files/filevine-7087/docs/
142486,2020-06-02 18:05:34,815,FINISHED_OK,,25,Ixchel Ruvalcalva (Civil),./data-out/142450/client-import-files/filevine-7087/docs/
142488,2020-06-02 18:05:34,991,FINISHED_OK,,40,Jason Saunders (Civil),./data-out/142450/client-import-files/filevine-7087/docs/
142489,2020-06-02 18:05:35,955,FINISHED_OK,,22,Jesus Fierro (Civil),./data-out/142450/client-import-files/filevine-7087/docs/
142490,2020-06-02 18:05:35,1339,FINISHED_OK,,210,Johanna Forman (Civil #2),./data-out/142450/client-import-files/filevine-7087/docs/
142487,2020-06-02 18:05:34,1892,FINISHED_OK,,528,Jacqueline Velasquez (Civil),./data-out/142450/client-import-files/filevine-7087/docs/
142492,2020-06-02 18:05:36,880,FINISHED_OK,,19,John Fornachon (Civil),./data-out/142450/client-import-files/filevine-7087/docs/
142494,2020-06-02 18:05:36,885,FINISHED_OK,,6,Jonathan Mendoza Calmo (Civil),./data-out/142450/client-import-files/filevine-7087/docs/
142493,2020-06-02 18:05:36,1176,FINISHED_OK,,304,John Neal (Civil),./data-out/142450/client-import-files/filevine-7087/docs/
142495,2020-06-02 18:05:37,833,FINISHED_OK,,10,Jonathan Mendoza Calmo,./data-out/142450/client-import-files/filevine-7087/docs/
142496,2020-06-02 18:05:37,753,FINISHED_OK,,11,Jose F. Amaya (Civil),./data-out/142450/client-import-files/filevine-7087/docs/
142497,2020-06-02 18:05:37,1893,FINISHED_OK,,545,Jose L. Martinez (Civil),./data-out/142450/client-import-files/filevine-7087/docs/
142498,2020-06-02 18:05:37,1874,FINISHED_OK,,453,Jose Luis Martinez Mendoza (Civil),./data-out/142450/client-import-files/filevine-7087/docs/
142491,2020-06-02 18:05:36,3988,FINISHED_OK,,1691,Johanna Forman (Civil),./data-out/142450/client-import-files/filevine-7087/docs/
142499,2020-06-02 18:05:38,1834,FINISHED_OK,,343,Jose Tovar (Civil),./data-out/142450/client-import-files/filevine-7087/docs/
142500,2020-06-02 18:05:39,943,FINISHED_OK,,53,Josh McDowell (Civil),./data-out/142450/client-import-files/filevine-7087/docs/
142501,2020-06-02 18:05:39,884,FINISHED_OK,,23,Juan Belloso Perez (Civil),./data-out/142450/client-import-files/filevine-7087/docs/
142502,2020-06-02 18:05:40,807,FINISHED_OK,,33,Juan Martinez (Civil),./data-out/142450/client-import-files/filevine-7087/docs/
142504,2020-06-02 18:05:40,851,FINISHED_OK,,28,Kamala Mainali (Civil),./data-out/142450/client-import-files/filevine-7087/docs/
142503,2020-06-02 18:05:40,1243,FINISHED_OK,,161,Julian Chenault (Civil),./data-out/142450/client-import-files/filevine-7087/docs/
142505,2020-06-02 18:05:40,980,FINISHED_OK,,85,Kegham Keremian (Civil),./data-out/142450/client-import-files/filevine-7087/docs/
142507,2020-06-02 18:05:41,908,FINISHED_OK,,30,Larry Murray (Civil #2),./data-out/142450/client-import-files/filevine-7087/docs/
142508,2020-06-02 18:05:41,866,FINISHED_OK,,1,Leopoldo Zambrano (Civil),./data-out/142450/client-import-files/filevine-7087/docs/
142506,2020-06-02 18:05:40,1810,FINISHED_OK,,700,Kelly L. Tuttle (Civil),./data-out/142450/client-import-files/filevine-7087/docs/
142509,2020-06-02 18:05:41,1049,FINISHED_OK,,25,Leticia Montes (Civil),./data-out/142450/client-import-files/filevine-7087/docs/
142510,2020-06-02 18:05:42,996,FINISHED_OK,,90,Linda Wong (Civil),./data-out/142450/client-import-files/filevine-7087/docs/
142512,2020-06-02 18:05:42,968,FINISHED_OK,,8,Lucia Sierra (Civil),./data-out/142450/client-import-files/filevine-7087/docs/
142511,2020-06-02 18:05:42,1131,FINISHED_OK,,213,Lois Fox (Civil),./data-out/142450/client-import-files/filevine-7087/docs/
142514,2020-06-02 18:05:43,995,FINISHED_OK,,98,Maeodis Jones (Civil),./data-out/142450/client-import-files/filevine-7087/docs/
142516,2020-06-02 18:05:43,733,FINISHED_OK,,2,Martin Solano Murillo (Civil),./data-out/142450/client-import-files/filevine-7087/docs/
142513,2020-06-02 18:05:43,1631,FINISHED_OK,,408,Macaria Perez (Civil),./data-out/142450/client-import-files/filevine-7087/docs/
142515,2020-06-02 18:05:43,1284,FINISHED_OK,,195,Maria C. Moctezuma (Civil),./data-out/142450/client-import-files/filevine-7087/docs/
142517,2020-06-02 18:05:44,759,FINISHED_OK,,10,Melissa Turner (Civil),./data-out/142450/client-import-files/filevine-7087/docs/
142519,2020-06-02 18:05:44,894,FINISHED_OK,,50,Miguel Becerra (Civil),./data-out/142450/client-import-files/filevine-7087/docs/
142518,2020-06-02 18:05:44,977,FINISHED_OK,,26,Michael Britt (Civil),./data-out/142450/client-import-files/filevine-7087/docs/
142520,2020-06-02 18:05:45,1104,FINISHED_OK,,196,Monique Higgins (Civil),./data-out/142450/client-import-files/filevine-7087/docs/
142521,2020-06-02 18:05:45,1245,FINISHED_OK,,204,Monique Higgins,./data-out/142450/client-import-files/filevine-7087/docs/
142523,2020-06-02 18:05:45,996,FINISHED_OK,,6,Myron Sandoval (Federal Case #2),./data-out/142450/client-import-files/filevine-7087/docs/
142524,2020-06-02 18:05:46,935,FINISHED_OK,,52,Nebosia Freeman, Jr. (Civil),./data-out/142450/client-import-files/filevine-7087/docs/
142525,2020-06-02 18:05:46,1119,FINISHED_OK,,115,Nestor Duenas Santos (Civil),./data-out/142450/client-import-files/filevine-7087/docs/
142527,2020-06-02 18:05:47,978,FINISHED_OK,,22,Parwiz Khazi (Civil),./data-out/142450/client-import-files/filevine-7087/docs/
142526,2020-06-02 18:05:46,1543,FINISHED_OK,,363,Norma Ismail (Civil),./data-out/142450/client-import-files/filevine-7087/docs/
142528,2020-06-02 18:05:47,1103,FINISHED_OK,,41,Pascual Carrillo (Civil),./data-out/142450/client-import-files/filevine-7087/docs/
142530,2020-06-02 18:05:48,881,FINISHED_OK,,10,Quientosha Jones (Civil),./data-out/142450/client-import-files/filevine-7087/docs/
142529,2020-06-02 18:05:48,1213,FINISHED_OK,,44,Phyllis Vance (Civil),./data-out/142450/client-import-files/filevine-7087/docs/
142531,2020-06-02 18:05:49,1153,FINISHED_OK,,131,Raquel Moody (Civil),./data-out/142450/client-import-files/filevine-7087/docs/
142532,2020-06-02 18:05:49,837,FINISHED_OK,,3,Renard Lee (Civil),./data-out/142450/client-import-files/filevine-7087/docs/
142522,2020-06-02 18:05:45,4542,FINISHED_OK,,3017,Myron Sandoval (Civil),./data-out/142450/client-import-files/filevine-7087/docs/
142533,2020-06-02 18:05:49,940,FINISHED_OK,,51,Richard VanCleve (Civil),./data-out/142450/client-import-files/filevine-7087/docs/
142535,2020-06-02 18:05:50,953,FINISHED_OK,,21,Robert Fornachon (Civil),./data-out/142450/client-import-files/filevine-7087/docs/
142536,2020-06-02 18:05:50,883,FINISHED_OK,,35,Robert Gotelli (Civil #2),./data-out/142450/client-import-files/filevine-7087/docs/
142534,2020-06-02 18:05:50,1461,FINISHED_OK,,391,Robb Wirt (Civil),./data-out/142450/client-import-files/filevine-7087/docs/
142537,2020-06-02 18:05:50,1490,FINISHED_OK,,276,Robert Gotelli (Civil),./data-out/142450/client-import-files/filevine-7087/docs/
142538,2020-06-02 18:05:51,811,FINISHED_OK,,26,Rosalina Dinglasan (Civil),./data-out/142450/client-import-files/filevine-7087/docs/
142539,2020-06-02 18:05:51,1170,FINISHED_OK,,109,Rosalind Davies (Civil),./data-out/142450/client-import-files/filevine-7087/docs/
142540,2020-06-02 18:05:51,972,FINISHED_OK,,44,Roxanne Vance (Civil),./data-out/142450/client-import-files/filevine-7087/docs/
142541,2020-06-02 18:05:52,997,FINISHED_OK,,49,Ruben Riano (Civil),./data-out/142450/client-import-files/filevine-7087/docs/
142542,2020-06-02 18:05:52,1035,FINISHED_OK,,65,Rudy Peraza Rivera (Civil),./data-out/142450/client-import-files/filevine-7087/docs/
142543,2020-06-02 18:05:52,1239,FINISHED_OK,,181,Sabitra Bajagian (Civil),./data-out/142450/client-import-files/filevine-7087/docs/
142545,2020-06-02 18:05:53,1246,FINISHED_OK,,199,Sabrita Bajagain (Civil),./data-out/142450/client-import-files/filevine-7087/docs/
142546,2020-06-02 18:05:53,1153,FINISHED_OK,,148,Sergio Alvarez (Civil),./data-out/142450/client-import-files/filevine-7087/docs/
142544,2020-06-02 18:05:52,1883,FINISHED_OK,,597,Sabrion Bush (Civil),./data-out/142450/client-import-files/filevine-7087/docs/
142547,2020-06-02 18:05:54,1454,FINISHED_OK,,136,Sergio Alvarez Duenas (Civil),./data-out/142450/client-import-files/filevine-7087/docs/
142548,2020-06-02 18:05:54,1207,FINISHED_OK,,147,Shahin Taj Bakhtiar (Civil),./data-out/142450/client-import-files/filevine-7087/docs/
142550,2020-06-02 18:05:54,1089,FINISHED_OK,,88,Silvino Mejia Ramos (Civil),./data-out/142450/client-import-files/filevine-7087/docs/
142549,2020-06-02 18:05:54,1324,FINISHED_OK,,203,Shannon Nelson (Civil),./data-out/142450/client-import-files/filevine-7087/docs/
142552,2020-06-02 18:05:55,829,FINISHED_OK,,28,Soo Kim (Civil),./data-out/142450/client-import-files/filevine-7087/docs/
142553,2020-06-02 18:05:55,731,FINISHED_OK,,16,Steve Kim (Civil),./data-out/142450/client-import-files/filevine-7087/docs/
142551,2020-06-02 18:05:55,1184,FINISHED_OK,,161,Sonia T. Rivas (Civil),./data-out/142450/client-import-files/filevine-7087/docs/
142554,2020-06-02 18:05:55,1414,FINISHED_OK,,22,Temaleti Havea (Civil),./data-out/142450/client-import-files/filevine-7087/docs/
142555,2020-06-02 18:05:56,792,FINISHED_OK,,5,Temujin Harris (Civil),./data-out/142450/client-import-files/filevine-7087/docs/
142556,2020-06-02 18:05:56,782,FINISHED_OK,,2,Tina Simon (Civil),./data-out/142450/client-import-files/filevine-7087/docs/
142557,2020-06-02 18:05:56,1356,FINISHED_OK,,251,Tito A. Jeronimo (Civil),./data-out/142450/client-import-files/filevine-7087/docs/
142559,2020-06-02 18:05:57,812,FINISHED_OK,,1,Tom Nussbaum (Civil),./data-out/142450/client-import-files/filevine-7087/docs/
142558,2020-06-02 18:05:57,1239,FINISHED_OK,,219,Tito Abel Pablo Jeronimo (Civil),./data-out/142450/client-import-files/filevine-7087/docs/
142561,2020-06-02 18:05:58,1186,FINISHED_OK,,7,Vyacheslav Viner (Civil),./data-out/142450/client-import-files/filevine-7087/docs/
142562,2020-06-02 18:05:58,2911,FINISHED_OK,,1246,William Jeff Holley (Civil),./data-out/142450/client-import-files/filevine-7087/docs/
142560,2020-06-02 18:05:57,4288,FINISHED_OK,,2874,Victor Trejo (Civil),./data-out/142450/client-import-files/filevine-7087/docs/
