runId,startTime,duration,status,errMessage,totalFilesScanned,bucket,scan_file_name
-146,2020-04-22 16:13:06,635,FINISHED_OK,,13,Appeal,./data-out/-144/client-import-files/filevine-5318/docs_r/Courtney v. Daimler
-147,2020-04-22 16:13:06,688,FINISHED_OK,,5,Case Law,./data-out/-144/client-import-files/filevine-5318/docs_r/Courtney v. Daimler
-148,2020-04-22 16:13:06,1266,FINISHED_OK,,447,Client,./data-out/-144/client-import-files/filevine-5318/docs_r/Courtney v. Daimler
-149,2020-04-22 16:13:06,1618,FINISHED_OK,,626,Costs,./data-out/-144/client-import-files/filevine-5318/docs_r/Courtney v. Daimler
-152,2020-04-22 16:13:07,692,FINISHED_OK,,3,Employment Records,./data-out/-144/client-import-files/filevine-5318/docs_r/Courtney v. Daimler
-154,2020-04-22 16:13:08,942,FINISHED_OK,,143,Expert Reports,./data-out/-144/client-import-files/filevine-5318/docs_r/Courtney v. Daimler
-155,2020-04-22 16:13:09,861,FINISHED_OK,,92,Experts,./data-out/-144/client-import-files/filevine-5318/docs_r/Courtney v. Daimler
-156,2020-04-22 16:13:10,709,FINISHED_OK,,26,Fee Agreement & Authos,./data-out/-144/client-import-files/filevine-5318/docs_r/Courtney v. Daimler
-157,2020-04-22 16:13:10,704,FINISHED_OK,,62,Income,./data-out/-144/client-import-files/filevine-5318/docs_r/Courtney v. Daimler
-158,2020-04-22 16:13:11,654,FINISHED_OK,,3,Insurance,./data-out/-144/client-import-files/filevine-5318/docs_r/Courtney v. Daimler
-159,2020-04-22 16:13:12,1473,FINISHED_OK,,619,Letters,./data-out/-144/client-import-files/filevine-5318/docs_r/Courtney v. Daimler
-151,2020-04-22 16:13:07,6985,FINISHED_OK,,3519,Discovery,./data-out/-144/client-import-files/filevine-5318/docs_r/Courtney v. Daimler
-160,2020-04-22 16:13:13,563,FINISHED_OK,,6,Liens,./data-out/-144/client-import-files/filevine-5318/docs_r/Courtney v. Daimler
-161,2020-04-22 16:13:14,628,FINISHED_OK,,25,Master Folder,./data-out/-144/client-import-files/filevine-5318/docs_r/Courtney v. Daimler
-162,2020-04-22 16:13:14,624,FINISHED_OK,,1,Medical Records,./data-out/-144/client-import-files/filevine-5318/docs_r/Courtney v. Daimler
-163,2020-04-22 16:13:14,782,FINISHED_OK,,89,Network,./data-out/-144/client-import-files/filevine-5318/docs_r/Courtney v. Daimler
-164,2020-04-22 16:13:14,2747,FINISHED_OK,,1879,Photos,./data-out/-144/client-import-files/filevine-5318/docs_r/Courtney v. Daimler
-165,2020-04-22 16:13:15,2870,FINISHED_OK,,1463,Pleadings,./data-out/-144/client-import-files/filevine-5318/docs_r/Courtney v. Daimler
-153,2020-04-22 16:13:08,10817,FINISHED_OK,,5889,Evidence & Investigation,./data-out/-144/client-import-files/filevine-5318/docs_r/Courtney v. Daimler
-167,2020-04-22 16:13:18,600,FINISHED_OK,,36,Veritext,./data-out/-144/client-import-files/filevine-5318/docs_r/Courtney v. Daimler
-169,2020-04-22 16:13:18,628,FINISHED_OK,,4,WC File,./data-out/-144/client-import-files/filevine-5318/docs_r/Courtney v. Daimler
-168,2020-04-22 16:13:18,823,FINISHED_OK,,40,Video,./data-out/-144/client-import-files/filevine-5318/docs_r/Courtney v. Daimler
-171,2020-04-22 16:13:19,611,FINISHED_OK,,4,_gsdata_,./data-out/-144/client-import-files/filevine-5318/docs_r/Courtney v. Daimler
-170,2020-04-22 16:13:19,780,FINISHED_OK,,68,_Docs from Romano Law,./data-out/-144/client-import-files/filevine-5318/docs_r/Courtney v. Daimler
-172,2020-04-22 16:13:20,383,FINISHED_OK,,1,Binder labels.wpd,./data-out/-144/client-import-files/filevine-5318/docs_r/Courtney v. Daimler
-173,2020-04-22 16:13:20,434,FINISHED_OK,,1,Brief Writeup re Verdict.docx,./data-out/-144/client-import-files/filevine-5318/docs_r/Courtney v. Daimler
-174,2020-04-22 16:13:20,441,FINISHED_OK,,1,Courtney Costs,./data-out/-144/client-import-files/filevine-5318/docs_r/Courtney v. Daimler
-175,2020-04-22 16:13:20,370,FINISHED_OK,,1,DJ Write-up Courtney (final).docx,./data-out/-144/client-import-files/filevine-5318/docs_r/Courtney v. Daimler
-176,2020-04-22 16:13:21,169,FINISHED_OK,,1,DJ Write-up Courtney.docx,./data-out/-144/client-import-files/filevine-5318/docs_r/Courtney v. Daimler
-177,2020-04-22 16:13:21,154,FINISHED_OK,,1,Dept. S26 Courtroom Info.pdf,./data-out/-144/client-import-files/filevine-5318/docs_r/Courtney v. Daimler
-178,2020-04-22 16:13:21,154,FINISHED_OK,,1,Email blast re verdict.docx,./data-out/-144/client-import-files/filevine-5318/docs_r/Courtney v. Daimler
-179,2020-04-22 16:13:21,153,FINISHED_OK,,1,HLF FIRM Meeting Executed.pdf,./data-out/-144/client-import-files/filevine-5318/docs_r/Courtney v. Daimler
-180,2020-04-22 16:13:21,160,FINISHED_OK,,1,LTR TO Raymond 2019-10-25 re Stipulation & Agreement.docx,./data-out/-144/client-import-files/filevine-5318/docs_r/Courtney v. Daimler
-181,2020-04-22 16:13:21,160,FINISHED_OK,,1,SyncToy_90c23055-75ad-40b4-9c75-585c3605409b.dat,./data-out/-144/client-import-files/filevine-5318/docs_r/Courtney v. Daimler
-182,2020-04-22 16:13:21,160,FINISHED_OK,,1,SyncToy_9a66359e-e671-409a-a000-3af785c8f269.dat,./data-out/-144/client-import-files/filevine-5318/docs_r/Courtney v. Daimler
-183,2020-04-22 16:13:21,154,FINISHED_OK,,1,SyncToy_b0b90584-21d1-44a5-9c66-77e3904004d7.dat,./data-out/-144/client-import-files/filevine-5318/docs_r/Courtney v. Daimler
-184,2020-04-22 16:13:21,160,FINISHED_OK,,1,SyncToy_bf9bbdd0-df72-4dad-8e87-ee2817ac7245.dat,./data-out/-144/client-import-files/filevine-5318/docs_r/Courtney v. Daimler
-185,2020-04-22 16:13:21,164,FINISHED_OK,,1,SyncToy_e8142a7c-5086-45a0-a5aa-eae2e17654c8.dat,./data-out/-144/client-import-files/filevine-5318/docs_r/Courtney v. Daimler
-186,2020-04-22 16:13:21,155,FINISHED_OK,,1,SyncToy_f71bb153-c1bd-44de-a2bc-172c136c3ead.dat,./data-out/-144/client-import-files/filevine-5318/docs_r/Courtney v. Daimler
-187,2020-04-22 16:13:22,160,FINISHED_OK,,1,Thumbs.db,./data-out/-144/client-import-files/filevine-5318/docs_r/Courtney v. Daimler
-189,2020-04-22 16:13:22,163,FINISHED_OK,,1,WpDocs - Shortcut.lnk,./data-out/-144/client-import-files/filevine-5318/docs_r/Courtney v. Daimler
-188,2020-04-22 16:13:22,207,FINISHED_OK,,1,VERDICTS AND SETTLEMENTS.pdf,./data-out/-144/client-import-files/filevine-5318/docs_r/Courtney v. Daimler
-190,2020-04-22 16:13:22,158,FINISHED_OK,,1,_Index Docs in File [INTERNAL USE ONLY].docx,./data-out/-144/client-import-files/filevine-5318/docs_r/Courtney v. Daimler
-166,2020-04-22 16:13:17,14331,FINISHED_OK,,9822,Trial,./data-out/-144/client-import-files/filevine-5318/docs_r/Courtney v. Daimler
-150,2020-04-22 16:13:06,35914,FINISHED_OK,,21279,Depositions,./data-out/-144/client-import-files/filevine-5318/docs_r/Courtney v. Daimler
