runId,startTime,duration,status,errMessage,totalFilesScanned,bucket,scan_file_name
-36365,2020-05-09 02:04:59,706,FINISHED_OK,,9,Anderson, Dave - Copy,./data-out/-36361/client-import-files/filevine-7206
-36366,2020-05-09 02:04:59,850,FINISHED_OK,,135,Anderson, Dave,./data-out/-36361/client-import-files/filevine-7206
-36363,2020-05-09 02:04:59,1797,FINISHED_OK,,946,Adam W,./data-out/-36361/client-import-files/filevine-7206
-36364,2020-05-09 02:04:59,2301,FINISHED_OK,,1494,Alexis M,./data-out/-36361/client-import-files/filevine-7206
-36369,2020-05-09 02:05:01,702,FINISHED_OK,,32,Arellano, Stacy -SHARED CLIENT Matt McKeever,./data-out/-36361/client-import-files/filevine-7206
-36370,2020-05-09 02:05:01,764,FINISHED_OK,,36,Armour, Mike,./data-out/-36361/client-import-files/filevine-7206
-36372,2020-05-09 02:05:02,591,FINISHED_OK,,14,Barrett, Mary,./data-out/-36361/client-import-files/filevine-7206
-36371,2020-05-09 02:05:01,1217,FINISHED_OK,,4,Arneson,./data-out/-36361/client-import-files/filevine-7206
-36374,2020-05-09 02:05:03,707,FINISHED_OK,,9,Birchfield, Noelle SOL,./data-out/-36361/client-import-files/filevine-7206
-36375,2020-05-09 02:05:03,593,FINISHED_OK,,24,Buckley, Elaine,./data-out/-36361/client-import-files/filevine-7206
-36373,2020-05-09 02:05:03,1357,FINISHED_OK,,425,Barry, Tina - Norton,./data-out/-36361/client-import-files/filevine-7206
-36377,2020-05-09 02:05:04,611,FINISHED_OK,,17,Burns, Sally- Dog Bite,./data-out/-36361/client-import-files/filevine-7206
-36376,2020-05-09 02:05:04,760,FINISHED_OK,,81,Burke, Richard James SOL 03.02.2020,./data-out/-36361/client-import-files/filevine-7206
-36378,2020-05-09 02:05:05,734,FINISHED_OK,,63,Causevic, Ida SOL 02.20.2021,./data-out/-36361/client-import-files/filevine-7206
-36379,2020-05-09 02:05:05,697,FINISHED_OK,,51,Channell, Nicholas,./data-out/-36361/client-import-files/filevine-7206
-36380,2020-05-09 02:05:05,588,FINISHED_OK,,1,Chaput, Sarah,./data-out/-36361/client-import-files/filevine-7206
-36367,2020-05-09 02:05:00,6456,FINISHED_OK,,7394,Andrew W,./data-out/-36361/client-import-files/filevine-7206
-36381,2020-05-09 02:05:05,719,FINISHED_OK,,13,Chatterjee, Apurba,./data-out/-36361/client-import-files/filevine-7206
-36384,2020-05-09 02:05:06,1245,FINISHED_OK,,395,Croushorn, Danielle,./data-out/-36361/client-import-files/filevine-7206
-36383,2020-05-09 02:05:06,1410,FINISHED_OK,,534,Cooney, Sharon,./data-out/-36361/client-import-files/filevine-7206
-36386,2020-05-09 02:05:07,4866,FINISHED_OK,,3744,DeAna S,./data-out/-36361/client-import-files/filevine-7206
-36385,2020-05-09 02:05:07,5248,FINISHED_OK,,5131,Darren C,./data-out/-36361/client-import-files/filevine-7206
-36388,2020-05-09 02:05:13,582,FINISHED_OK,,12,Djureen, Diane,./data-out/-36361/client-import-files/filevine-7206
-36387,2020-05-09 02:05:12,1074,FINISHED_OK,,261,DiBiase, Donna,./data-out/-36361/client-import-files/filevine-7206
-36389,2020-05-09 02:05:13,696,FINISHED_OK,,51,Emerson, David,./data-out/-36361/client-import-files/filevine-7206
-36368,2020-05-09 02:05:00,14734,FINISHED_OK,,14302,Anne B,./data-out/-36361/client-import-files/filevine-7206
-36391,2020-05-09 02:05:14,780,FINISHED_OK,,91,FLEMMING,./data-out/-36361/client-import-files/filevine-7206
-36392,2020-05-09 02:05:15,797,FINISHED_OK,,90,Fischer, Jamie SOL July 26, 2023,./data-out/-36361/client-import-files/filevine-7206
-36393,2020-05-09 02:05:15,732,FINISHED_OK,,112,Gaffney, Thomas SOL 11.06.2022,./data-out/-36361/client-import-files/filevine-7206
-36390,2020-05-09 02:05:13,2086,FINISHED_OK,,978,Enelicko, Soga,./data-out/-36361/client-import-files/filevine-7206
-36394,2020-05-09 02:05:15,662,FINISHED_OK,,33,Gai, Peter,./data-out/-36361/client-import-files/filevine-7206
-36396,2020-05-09 02:05:16,1002,FINISHED_OK,,208,Griffs, Barry,./data-out/-36361/client-import-files/filevine-7206
-36397,2020-05-09 02:05:16,952,FINISHED_OK,,238,Hall, Michael SOL 12.18.2021,./data-out/-36361/client-import-files/filevine-7206
-36398,2020-05-09 02:05:17,607,FINISHED_OK,,28,Halverson, Calli,./data-out/-36361/client-import-files/filevine-7206
-36399,2020-05-09 02:05:17,569,FINISHED_OK,,10,Harry, Stacey,./data-out/-36361/client-import-files/filevine-7206
-36401,2020-05-09 02:05:17,618,FINISHED_OK,,31,Heard, Micayla,./data-out/-36361/client-import-files/filevine-7206
-36395,2020-05-09 02:05:15,2788,FINISHED_OK,,1614,Goldsmith, Randall J. SOL 09.21.2022,./data-out/-36361/client-import-files/filevine-7206
-36400,2020-05-09 02:05:17,1089,FINISHED_OK,,347,Headley, Nancy & James,./data-out/-36361/client-import-files/filevine-7206
-36403,2020-05-09 02:05:18,660,FINISHED_OK,,39,Hossner, Tabbitha SOL 06.18.2021,./data-out/-36361/client-import-files/filevine-7206
-36404,2020-05-09 02:05:18,628,FINISHED_OK,,15,Jizba, Barbara,./data-out/-36361/client-import-files/filevine-7206
-36402,2020-05-09 02:05:18,794,FINISHED_OK,,60,Hintz-Moran, Kaylee SOL 011482024,./data-out/-36361/client-import-files/filevine-7206
-36405,2020-05-09 02:05:19,734,FINISHED_OK,,86,LEWIS, REBEKAH MODIFICATION,./data-out/-36361/client-import-files/filevine-7206
-36406,2020-05-09 02:05:19,737,FINISHED_OK,,106,LEWIS, REBEKAH,./data-out/-36361/client-import-files/filevine-7206
-36407,2020-05-09 02:05:19,1218,FINISHED_OK,,416,Lane, Greg,./data-out/-36361/client-import-files/filevine-7206
-36410,2020-05-09 02:05:20,821,FINISHED_OK,,19,McCumbers, Michael,./data-out/-36361/client-import-files/filevine-7206
-36409,2020-05-09 02:05:20,1575,FINISHED_OK,,675,Matthew Wurstner,./data-out/-36361/client-import-files/filevine-7206
-36412,2020-05-09 02:05:21,665,FINISHED_OK,,56,McTaggart, Jennifer,./data-out/-36361/client-import-files/filevine-7206
-36411,2020-05-09 02:05:21,989,FINISHED_OK,,124,McManigal, Jerry, DDS,./data-out/-36361/client-import-files/filevine-7206
-36413,2020-05-09 02:05:22,606,FINISHED_OK,,28,Meneely, Kristina,./data-out/-36361/client-import-files/filevine-7206
-36414,2020-05-09 02:05:22,687,FINISHED_OK,,39,O'Dell, Steve,./data-out/-36361/client-import-files/filevine-7206
-36415,2020-05-09 02:05:22,958,FINISHED_OK,,209,Pagan, Lillian SOL 12.08.2020,./data-out/-36361/client-import-files/filevine-7206
-36416,2020-05-09 02:05:23,980,FINISHED_OK,,178,Penick, Jennifer, Unity -Wrongful Death & PI,./data-out/-36361/client-import-files/filevine-7206
-36417,2020-05-09 02:05:23,638,FINISHED_OK,,38,Pruitt, Jason,./data-out/-36361/client-import-files/filevine-7206
-36408,2020-05-09 02:05:20,4651,FINISHED_OK,,2939,Matt McKeever,./data-out/-36361/client-import-files/filevine-7206
-36418,2020-05-09 02:05:24,923,FINISHED_OK,,159,Ranallo, Penny SOL 06.14.2022,./data-out/-36361/client-import-files/filevine-7206
-36419,2020-05-09 02:05:24,873,FINISHED_OK,,66,Reed, Krysta,./data-out/-36361/client-import-files/filevine-7206
-36420,2020-05-09 02:05:24,913,FINISHED_OK,,232,Reitz, April Anne,./data-out/-36361/client-import-files/filevine-7206
-36421,2020-05-09 02:05:25,616,FINISHED_OK,,38,Richardson, Robert,./data-out/-36361/client-import-files/filevine-7206
-36422,2020-05-09 02:05:25,915,FINISHED_OK,,127,Schaben, Connie SOL 06.21.2022,./data-out/-36361/client-import-files/filevine-7206
-36424,2020-05-09 02:05:25,706,FINISHED_OK,,71,Soto, Nicole SOL 04.06.2021,./data-out/-36361/client-import-files/filevine-7206
-36423,2020-05-09 02:05:25,754,FINISHED_OK,,59,Schaeffer, Caitlyn SOL 04.19.2023,./data-out/-36361/client-import-files/filevine-7206
-36426,2020-05-09 02:05:26,634,FINISHED_OK,,34,TW Huntington,./data-out/-36361/client-import-files/filevine-7206
-36425,2020-05-09 02:05:26,1086,FINISHED_OK,,352,Steve S,./data-out/-36361/client-import-files/filevine-7206
-36428,2020-05-09 02:05:27,616,FINISHED_OK,,24,Thackray, Mathew SOL 01.12.2024,./data-out/-36361/client-import-files/filevine-7206
-36430,2020-05-09 02:05:27,708,FINISHED_OK,,66,Tut, Chol B SOL 04.17.2023,./data-out/-36361/client-import-files/filevine-7206
-36429,2020-05-09 02:05:27,904,FINISHED_OK,,225,Trautman, Derrik SOL 12.17.2021,./data-out/-36361/client-import-files/filevine-7206
-36431,2020-05-09 02:05:28,805,FINISHED_OK,,94,Wagner, Marialyce SOL 06.29.2022,./data-out/-36361/client-import-files/filevine-7206
-36432,2020-05-09 02:05:28,1206,FINISHED_OK,,473,Weis, Jessica,./data-out/-36361/client-import-files/filevine-7206
-36427,2020-05-09 02:05:26,3339,FINISHED_OK,,2760,Terry W,./data-out/-36361/client-import-files/filevine-7206
-36433,2020-05-09 02:05:29,719,FINISHED_OK,,49,Wiegl, Tyson,./data-out/-36361/client-import-files/filevine-7206
-36434,2020-05-09 02:05:29,768,FINISHED_OK,,48,Wulff, Brandon,./data-out/-36361/client-import-files/filevine-7206
-36382,2020-05-09 02:05:06,31628,FINISHED_OK,,22581,Clete B,./data-out/-36361/client-import-files/filevine-7206
