runId,startTime,duration,status,errMessage,totalFilesScanned,bucket,scan_file_name
-36348,2020-05-09 01:54:11,6438,FINISHED_OK,,4041,lit,./data-out/-36346/client-import-files/filevine-6985/docs
-36350,2020-05-09 01:54:11,114875,FINISHED_OK,,109086,prelit,./data-out/-36346/client-import-files/filevine-6985/docs
-36349,2020-05-09 01:54:11,144428,FINISHED_OK,,131578,masstort,./data-out/-36346/client-import-files/filevine-6985/docs
