runId,startTime,duration,status,errMessage,totalFilesScanned,bucket,scan_file_name
174571,2020-06-26 20:41:59,591,FINISHED_OK,,1,Stephanie Ahmad - Response to ERISA Request.pdf,./data-out/174566/client-import-files/filevine-5091/AnzaloneV8
174572,2020-06-26 20:42:00,183,FINISHED_OK,,1,Vazquez - Request for for Postmaster.pdf,./data-out/174566/client-import-files/filevine-5091/AnzaloneV8
174570,2020-06-26 20:41:59,1619,FINISHED_OK,,487,Law Library, Office Memos, Forms, etc,./data-out/174566/client-import-files/filevine-5091/AnzaloneV8
174568,2020-06-26 20:41:59,146228,FINISHED_OK,,102584,Active Files,./data-out/174566/client-import-files/filevine-5091/AnzaloneV8
174569,2020-06-26 20:41:59,297361,FINISHED_OK,,205823,Closed Files_LIENS PENDING,./data-out/174566/client-import-files/filevine-5091/AnzaloneV8
